%time,field.header.seq,field.header.stamp,field.header.frame_id,field.adc0,field.adc1,field.adc2,field.adc3,field.adc4,field.adc5,field.adc6,field.adc7,field.adc8,field.adc9,field.adc10,field.adc11,field.adc12,field.adc13,field.adc14,field.adc15,field.nano.force.x,field.nano.force.y,field.nano.force.z,field.nano.torque.x,field.nano.torque.y,field.nano.torque.z
1519257010741242555,49023,1519257010741168623,weiss_callib,486,486,486,486,488,479,490,487,480,488,488,489,484,488,476,486,0.492472201586,-0.652173936367,127.823242188,0.0,0.0,0.0
1519257010821579192,49024,1519257010821244490,weiss_callib,486,486,487,487,487,479,490,487,480,488,488,489,483,488,477,486,0.520613491535,-0.666666686535,127.823242188,0.0,0.0,0.0
1519257010941459974,49025,1519257010941183487,weiss_callib,486,486,486,486,488,479,491,487,480,489,488,488,483,488,476,486,0.492472201586,-0.652173936367,127.823242188,0.0,0.0,0.0
1519257011061522225,49026,1519257011061185680,weiss_callib,487,486,486,486,488,479,491,487,480,488,488,489,484,488,476,486,0.492472201586,-0.652173936367,127.823242188,0.0,0.0,0.0
1519257011141503216,49027,1519257011141291981,weiss_callib,486,486,487,487,488,479,491,487,480,488,488,488,484,487,476,486,0.492472201586,-0.666666686535,127.659576416,0.0,0.0,0.0
1519257011261490759,49028,1519257011261168294,weiss_callib,487,486,487,487,488,479,490,487,480,489,488,488,484,488,476,486,0.478401571512,-0.681159436703,127.659576416,0.0,0.0,0.0
1519257011381473822,49029,1519257011381196643,weiss_callib,486,486,486,487,488,479,491,487,480,489,488,488,483,487,476,486,0.506542861462,-0.666666686535,127.986907959,0.0,0.0,0.0
1519257011461549565,49030,1519257011461223129,weiss_callib,486,486,486,486,488,479,490,487,480,489,488,489,485,488,477,486,0.492472201586,-0.695652186871,127.659576416,0.0,0.0,0.0
1519257011581715609,49031,1519257011581263061,weiss_callib,486,487,487,486,488,479,490,487,480,488,488,488,483,487,476,486,0.492472201586,-0.652173936367,127.823242188,0.0,0.0,0.0
1519257011701559349,49032,1519257011701213351,weiss_callib,486,486,486,485,489,479,490,487,480,489,488,488,483,488,476,486,0.492472201586,-0.681159436703,127.659576416,0.0,0.0,0.0
1519257011781596155,49033,1519257011781236706,weiss_callib,487,486,486,486,488,478,490,487,480,488,488,489,483,487,476,486,0.492472201586,-0.666666686535,127.823242188,0.0,0.0,0.0
1519257011901552284,49034,1519257011901197170,weiss_callib,487,486,487,486,487,479,490,487,480,488,488,488,484,487,475,486,0.492472201586,-0.710144937038,127.986907959,0.0,0.0,0.0
1519257011981464378,49035,1519257011981201846,weiss_callib,486,486,486,486,488,479,490,487,480,489,488,489,484,488,475,486,0.520613491535,-0.695652186871,127.823242188,0.0,0.0,0.0
1519257012101588103,49036,1519257012101212948,weiss_callib,487,487,487,486,489,480,491,487,481,489,489,489,485,488,476,487,0.534684121609,-0.666666686535,128.15057373,0.0,0.0,0.0
1519257012221598233,49037,1519257012221246101,weiss_callib,486,486,487,486,488,479,490,487,480,488,488,488,484,488,476,486,0.492472201586,-0.652173936367,127.823242188,0.0,0.0,0.0
1519257012301573064,49038,1519257012301203873,weiss_callib,487,486,486,485,488,479,490,487,480,488,487,488,484,487,475,486,0.492472201586,-0.637681186199,127.823242188,0.0,0.0,0.0
1519257012421492928,49039,1519257012421196348,weiss_callib,488,487,487,487,488,479,491,487,480,488,488,488,484,487,476,486,0.492472201586,-0.681159436703,127.823242188,0.0,0.0,0.0
1519257012541543797,49040,1519257012541175337,weiss_callib,486,487,486,486,488,478,491,487,480,488,489,488,483,487,476,486,0.492472201586,-0.681159436703,127.986907959,0.0,0.0,0.0
1519257012621575050,49041,1519257012621210560,weiss_callib,486,487,486,486,488,479,490,487,480,488,488,488,484,487,475,486,0.492472201586,-0.681159436703,127.986907959,0.0,0.0,0.0
1519257012741506241,49042,1519257012741216922,weiss_callib,486,486,487,485,488,479,490,488,480,488,488,488,484,487,476,485,0.520613491535,-0.637681186199,127.986907959,0.0,0.0,0.0
1519257012821601423,49043,1519257012821218149,weiss_callib,486,487,486,486,489,479,491,487,480,489,488,489,484,487,476,486,0.506542861462,-0.681159436703,127.986907959,0.0,0.0,0.0
1519257012941554595,49044,1519257012941235710,weiss_callib,487,487,486,486,488,480,491,487,480,488,488,488,483,487,476,486,0.478401571512,-0.666666686535,127.823242188,0.0,0.0,0.0
1519257013061540432,49045,1519257013061173616,weiss_callib,486,486,486,486,488,479,491,487,480,488,488,489,484,488,476,486,0.506542861462,-0.666666686535,127.659576416,0.0,0.0,0.0
1519257013141563276,49046,1519257013141248140,weiss_callib,487,486,487,486,487,479,490,487,480,488,488,489,484,487,476,486,0.492472201586,-0.637681186199,127.823242188,0.0,0.0,0.0
1519257013261582375,49047,1519257013261219168,weiss_callib,487,487,486,486,488,479,491,487,480,488,488,488,484,487,476,486,0.492472201586,-0.681159436703,127.986907959,0.0,0.0,0.0
1519257013381580420,49048,1519257013381199182,weiss_callib,487,486,486,486,488,479,490,487,480,489,488,489,484,488,476,486,0.520613491535,-0.666666686535,128.15057373,0.0,0.0,0.0
1519257013461495898,49049,1519257013461189105,weiss_callib,486,486,487,487,489,479,490,487,480,488,488,489,484,488,476,486,0.506542861462,-0.666666686535,127.823242188,0.0,0.0,0.0
1519257013581495870,49050,1519257013581194477,weiss_callib,487,487,487,486,488,480,491,488,480,489,489,489,483,487,476,486,0.506542861462,-0.637681186199,127.986907959,0.0,0.0,0.0
1519257013701531845,49051,1519257013701184118,weiss_callib,487,486,486,487,488,479,490,487,480,489,488,488,484,488,476,486,0.506542861462,-0.695652186871,127.986907959,0.0,0.0,0.0
1519257013781619751,49052,1519257013781199532,weiss_callib,486,486,487,486,489,480,491,487,479,488,488,489,483,487,476,487,0.506542861462,-0.681159436703,127.986907959,0.0,0.0,0.0
1519257013901593844,49053,1519257013901176487,weiss_callib,486,486,487,486,488,479,491,488,480,488,488,489,483,488,476,486,0.520613491535,-0.710144937038,127.986907959,0.0,0.0,0.0
1519257013981538816,49054,1519257013981220326,weiss_callib,487,486,487,486,489,479,491,486,480,488,488,488,484,487,476,486,0.492472201586,-0.695652186871,127.986907959,0.0,0.0,0.0
1519257014101728065,49055,1519257014101248921,weiss_callib,487,486,486,487,488,479,490,487,480,489,488,488,484,488,476,486,0.506542861462,-0.681159436703,128.15057373,0.0,0.0,0.0
1519257014221602901,49056,1519257014221203992,weiss_callib,487,486,486,485,488,479,490,487,480,489,489,489,483,488,476,487,0.492472201586,-0.710144937038,127.823242188,0.0,0.0,0.0
1519257014301572608,49057,1519257014301210410,weiss_callib,486,486,487,486,488,479,490,487,480,488,488,488,483,488,476,486,0.506542861462,-0.710144937038,127.823242188,0.0,0.0,0.0
1519257014421563186,49058,1519257014421198972,weiss_callib,487,487,487,486,488,479,490,487,480,489,489,489,484,488,476,486,0.548754751682,-0.724637687206,127.823242188,0.0,0.0,0.0
1519257014541299673,49059,1519257014541174961,weiss_callib,487,487,487,485,487,479,491,486,481,489,488,489,484,488,476,486,0.520613491535,-0.681159436703,128.477905273,0.0,0.0,0.0
1519257014621287644,49060,1519257014621177578,weiss_callib,486,486,486,486,488,478,491,487,480,488,488,488,484,488,475,486,0.520613491535,-0.652173936367,129.132568359,0.0,0.0,0.0
1519257014741398331,49061,1519257014741184043,weiss_callib,486,486,486,486,488,479,490,487,480,488,488,489,484,488,476,486,0.703531742096,-0.420289844275,133.551559448,0.0,0.0,0.0
1519257014861341070,49062,1519257014861150128,weiss_callib,487,486,486,486,488,479,491,487,480,488,488,489,484,488,474,486,0.85830873251,-0.173913046718,135.515548706,0.0,0.0,0.0
1519257014941981824,49063,1519257014941182358,weiss_callib,487,486,486,486,488,479,491,487,480,488,489,489,483,487,473,486,0.914591252804,-0.0869565233588,139.770874023,0.0,0.0,0.0
1519257015061369526,49064,1519257015061171542,weiss_callib,487,486,486,486,488,479,491,487,480,488,488,488,484,488,472,486,1.19600391388,0.217391297221,145.008178711,0.0,0.0,0.0
1519257015141432745,49065,1519257015141222290,weiss_callib,486,486,486,486,488,479,491,487,480,489,489,489,484,488,471,486,0.970873773098,0.115942031145,142.880523682,0.0,0.0,0.0
1519257015261405374,49066,1519257015261197091,weiss_callib,486,486,486,486,488,479,490,487,480,488,489,489,483,488,471,486,1.13972139359,0.15942029655,147.463180542,0.0,0.0,0.0
1519257015381324559,49067,1519257015381170078,weiss_callib,487,486,486,486,488,479,490,487,480,489,488,489,484,488,469,486,1.33671033382,0.3188405931,154.00982666,0.0,0.0,0.0
1519257015461389181,49068,1519257015461188608,weiss_callib,487,486,486,486,488,479,491,487,480,488,489,489,484,487,468,486,1.26635706425,0.53623187542,153.846160889,0.0,0.0,0.0
1519257015581337580,49069,1519257015581159034,weiss_callib,486,486,486,486,488,479,490,488,480,489,488,488,484,488,467,486,1.57591104507,0.695652186871,159.738128662,0.0,0.0,0.0
1519257015701375625,49070,1519257015701182424,weiss_callib,487,486,486,485,488,479,490,487,480,489,488,489,484,489,467,487,1.58998167515,0.927536249161,157.774139404,0.0,0.0,0.0
1519257015781434826,49071,1519257015781193500,weiss_callib,487,487,486,486,488,479,490,487,480,489,488,489,484,488,465,486,1.50555789471,0.782608687878,163.993453979,0.0,0.0,0.0
1519257015901330725,49072,1519257015901161808,weiss_callib,487,486,486,486,488,479,491,487,480,488,488,488,484,488,465,486,1.81511187553,1.02898550034,167.430435181,0.0,0.0,0.0
1519257016021380638,49073,1519257016021170705,weiss_callib,487,486,487,486,488,480,490,486,481,488,488,489,484,488,462,487,1.6744055748,0.724637687206,165.630111694,0.0,0.0,0.0
1519257016101367456,49074,1519257016101182342,weiss_callib,487,487,487,486,488,479,490,487,480,489,489,489,484,488,461,486,1.70254683495,0.652173936367,170.212768555,0.0,0.0,0.0
1519257016221205067,49075,1519257016221138309,weiss_callib,487,486,486,485,488,479,490,487,480,489,488,489,484,488,460,487,2.06838321686,0.710144937038,173.486083984,0.0,0.0,0.0
1519257016341330543,49076,1519257016341170820,weiss_callib,487,486,487,487,488,479,491,488,480,489,488,489,484,488,460,487,1.9417475462,0.898550748825,178.559738159,0.0,0.0,0.0
1519257016421319744,49077,1519257016421188405,weiss_callib,487,487,487,487,489,480,491,487,481,489,489,489,485,489,458,487,2.42014908791,1.11594200134,189.689041138,0.0,0.0,0.0
1519257016541388909,49078,1519257016541172317,weiss_callib,486,487,486,486,489,479,490,487,480,489,489,489,484,488,456,486,2.51864361763,1.21739125252,181.505722046,0.0,0.0,0.0
1519257016621333480,49079,1519257016621172900,weiss_callib,487,486,487,486,488,480,490,487,480,489,488,489,484,489,454,486,2.02617144585,0.782608687878,180.032730103,0.0,0.0,0.0
1519257016741313927,49080,1519257016741180280,weiss_callib,487,487,487,486,488,479,490,488,480,489,489,489,484,488,453,487,2.20908951759,1.02898550034,200.163665771,0.0,0.0,0.0
1519257016861274721,49081,1519257016861170394,weiss_callib,487,486,486,486,488,479,490,487,480,489,489,488,484,488,451,487,2.40607857704,0.797101438046,190.99836731,0.0,0.0,0.0
1519257016941332309,49082,1519257016941185641,weiss_callib,487,486,486,487,488,479,490,487,480,488,489,488,484,489,449,486,2.29351353645,0.797101438046,188.870697021,0.0,0.0,0.0
1519257017061383519,49083,1519257017061171437,weiss_callib,487,487,486,486,488,479,491,488,481,488,489,488,485,488,447,486,2.4764316082,0.76811593771,200.163665771,0.0,0.0,0.0
1519257017181306015,49084,1519257017181170439,weiss_callib,487,486,486,485,489,479,490,487,480,489,489,489,484,488,445,486,2.71563243866,0.913043498993,199.181671143,0.0,0.0,0.0
1519257017261313414,49085,1519257017261181264,weiss_callib,487,486,486,486,488,479,490,487,480,489,489,488,484,489,445,487,2.8000562191,1.0434782505,203.27331543,0.0,0.0,0.0
1519257017381314416,49086,1519257017381171997,weiss_callib,487,487,487,486,488,480,490,487,480,489,489,489,484,488,442,487,3.1799633503,1.34782612324,207.037643433,0.0,0.0,0.0
1519257017501250083,49087,1519257017501146676,weiss_callib,487,486,487,486,488,479,490,488,481,490,489,489,484,488,439,487,2.94076251984,1.43478262424,211.456634521,0.0,0.0,0.0
1519257017581418977,49088,1519257017581192933,weiss_callib,487,486,487,486,488,479,490,488,481,488,489,489,484,489,438,487,3.22217535973,1.6811593771,218.821609497,0.0,0.0,0.0
1519257017701347868,49089,1519257017701170527,weiss_callib,487,487,487,486,489,480,490,487,480,489,489,489,484,488,435,487,3.26438713074,1.82608699799,216.202941895,0.0,0.0,0.0
1519257017781430270,49090,1519257017781181289,weiss_callib,487,486,487,486,488,479,491,487,481,490,490,490,484,489,432,488,3.12368083,1.55072462559,214.402618408,0.0,0.0,0.0
1519257017901489773,49091,1519257017901207439,weiss_callib,487,486,487,486,488,479,490,487,480,489,489,489,484,489,430,487,3.51765871048,1.30434787273,224.058914185,0.0,0.0,0.0
1519257018021280319,49092,1519257018021167833,weiss_callib,487,486,487,486,489,480,490,487,480,489,489,489,485,488,426,487,2.94076251984,1.13043475151,229.623565674,0.0,0.0,0.0
1519257018101326706,49093,1519257018101183085,weiss_callib,487,486,486,486,488,479,491,487,480,489,490,489,484,488,425,487,3.20810461044,1.52173912525,223.076919556,0.0,0.0,0.0
1519257018221338567,49094,1519257018221175391,weiss_callib,487,486,486,486,488,479,491,487,480,488,489,489,484,489,420,487,3.67243552208,1.34782612324,230.114562988,0.0,0.0,0.0
1519257018341309680,49095,1519257018341163535,weiss_callib,486,486,487,486,488,479,491,487,480,489,489,489,485,488,418,487,3.61615300179,1.82608699799,235.351882935,0.0,0.0,0.0
1519257018421336906,49096,1519257018421172082,weiss_callib,487,486,486,486,488,479,491,487,481,489,489,489,484,489,414,487,3.63022375107,1.78260874748,233.387893677,0.0,0.0,0.0
1519257018541369739,49097,1519257018541156418,weiss_callib,487,486,487,486,488,479,491,487,480,489,489,489,484,489,412,487,4.34782600403,1.94202899933,249.4271698,0.0,0.0,0.0
1519257018621350520,49098,1519257018621163434,weiss_callib,487,486,486,486,488,479,491,487,480,488,489,489,484,488,407,487,4.23526096344,2.05797100067,244.189849854,0.0,0.0,0.0
1519257018741509438,49099,1519257018741208471,weiss_callib,487,487,486,486,488,480,491,487,480,490,489,489,485,488,404,487,3.89756584167,1.76811599731,239.934539795,0.0,0.0,0.0
1519257018861485502,49100,1519257018861194041,weiss_callib,487,487,486,486,488,480,491,487,481,489,489,490,484,488,399,487,4.39003801346,1.7246376276,248.281509399,0.0,0.0,0.0
1519257018941455991,49101,1519257018941207127,weiss_callib,487,486,486,486,488,479,491,487,480,489,489,489,484,489,394,487,4.05234289169,1.98550724983,250.409164429,0.0,0.0,0.0
1519257019061365857,49102,1519257019061187382,weiss_callib,487,486,487,486,488,479,491,487,480,490,490,489,484,488,393,487,4.09455490112,1.94202899933,250.409164429,0.0,0.0,0.0
1519257019181508239,49103,1519257019181227131,weiss_callib,487,486,486,486,488,479,491,487,480,489,489,489,484,489,385,487,5.07949924469,1.85507249832,262.84777832,0.0,0.0,0.0
1519257019261490038,49104,1519257019261203445,weiss_callib,487,487,487,486,489,479,491,487,480,489,490,489,484,489,379,488,4.44632053375,1.69565212727,264.484466553,0.0,0.0,0.0
1519257019381358849,49105,1519257019381165586,weiss_callib,487,486,487,486,488,479,491,488,480,490,489,489,484,489,377,488,4.60109758377,1.81159424782,267.430450439,0.0,0.0,0.0
1519257019501338909,49106,1519257019501152668,weiss_callib,487,486,486,487,488,479,491,488,480,489,489,489,484,490,370,487,5.09356975555,1.94202899933,278.723419189,0.0,0.0,0.0
1519257019581379551,49107,1519257019581178123,weiss_callib,487,487,487,486,488,479,491,487,480,489,489,489,484,489,363,487,4.99507522583,1.92753624916,272.99508667,0.0,0.0,0.0
1519257019701603659,49108,1519257019701220411,weiss_callib,487,487,486,486,489,479,492,487,480,489,489,490,484,488,361,487,4.99507522583,1.82608699799,278.396057129,0.0,0.0,0.0
1519257019781520431,49109,1519257019781227000,weiss_callib,487,487,487,486,488,480,490,488,480,489,490,489,484,489,361,487,5.06542825699,1.91304349899,279.378082275,0.0,0.0,0.0
1519257019901604192,49110,1519257019901215816,weiss_callib,487,487,487,487,488,479,491,488,480,489,490,489,484,489,362,487,4.9669342041,1.78260874748,280.196411133,0.0,0.0,0.0
1519257020021424284,49111,1519257020021187412,weiss_callib,487,486,486,487,488,479,492,487,481,489,489,489,485,489,362,487,4.99507522583,1.85507249832,281.178405762,0.0,0.0,0.0
1519257020101586482,49112,1519257020101207950,weiss_callib,487,487,487,486,488,480,491,488,480,489,490,489,484,489,361,487,5.03728723526,1.91304349899,281.669403076,0.0,0.0,0.0
1519257020221448840,49113,1519257020221138904,weiss_callib,487,487,487,486,489,479,490,487,480,488,490,489,484,489,361,487,5.00914573669,1.88405799866,281.833068848,0.0,0.0,0.0
1519257020341433359,49114,1519257020341191647,weiss_callib,487,487,486,486,488,479,490,487,480,489,489,489,484,489,361,487,5.00914573669,1.85507249832,282.324066162,0.0,0.0,0.0
1519257020421587606,49115,1519257020421227551,weiss_callib,486,486,486,486,489,479,491,487,480,489,489,489,484,489,362,488,5.03728723526,1.91304349899,282.487731934,0.0,0.0,0.0
1519257020541470731,49116,1519257020541202737,weiss_callib,487,487,487,487,489,480,491,488,480,490,491,490,485,490,362,488,5.0232167244,1.88405799866,282.815063477,0.0,0.0,0.0
1519257020661480521,49117,1519257020661199750,weiss_callib,487,486,487,487,488,479,491,487,481,489,489,488,484,489,361,488,5.0232167244,1.89855074883,282.651397705,0.0,0.0,0.0
1519257020741336816,49118,1519257020741185606,weiss_callib,487,486,486,486,488,479,491,487,481,489,490,489,484,489,362,488,5.03728723526,1.9565217495,282.978729248,0.0,0.0,0.0
1519257020861399115,49119,1519257020861191984,weiss_callib,487,486,487,487,488,479,491,487,480,489,490,489,484,489,362,487,5.00914573669,1.81159424782,282.978729248,0.0,0.0,0.0
1519257020941429148,49120,1519257020941192498,weiss_callib,487,487,487,486,489,479,491,488,481,490,490,490,485,490,361,487,5.05135774612,1.86956524849,283.306060791,0.0,0.0,0.0
1519257021061380488,49121,1519257021061184807,weiss_callib,487,486,487,486,488,479,491,487,481,490,489,489,484,489,361,488,5.03728723526,1.85507249832,283.306060791,0.0,0.0,0.0
1519257021181746615,49122,1519257021181183893,weiss_callib,486,486,487,486,488,479,491,487,480,489,490,489,484,490,362,488,5.03728723526,1.91304349899,283.306060791,0.0,0.0,0.0
1519257021261303883,49123,1519257021261178855,weiss_callib,487,486,486,486,489,479,491,487,480,490,489,488,484,490,361,488,5.06542825699,1.91304349899,283.306060791,0.0,0.0,0.0
1519257021381522069,49124,1519257021381194098,weiss_callib,487,486,487,486,488,479,491,487,480,490,490,489,485,489,361,488,5.00914573669,1.86956524849,283.306060791,0.0,0.0,0.0
1519257021501554258,49125,1519257021501177901,weiss_callib,487,487,487,487,489,479,491,487,480,489,490,490,484,489,361,488,4.9528632164,1.78260874748,283.14239502,0.0,0.0,0.0
1519257021581516373,49126,1519257021581218715,weiss_callib,486,487,487,486,489,479,491,487,480,490,490,489,484,490,361,487,5.0232167244,1.82608699799,283.14239502,0.0,0.0,0.0
1519257021701420834,49127,1519257021701159826,weiss_callib,487,487,487,486,488,479,490,487,480,489,489,489,484,489,361,488,4.9669342041,1.6811593771,283.14239502,0.0,0.0,0.0
1519257021821525303,49128,1519257021821183174,weiss_callib,487,486,486,486,489,479,491,488,480,489,489,490,484,489,362,488,4.99507522583,1.7246376276,283.14239502,0.0,0.0,0.0
1519257021901379787,49129,1519257021901172519,weiss_callib,488,487,487,487,489,480,490,487,480,489,490,489,484,489,361,487,5.0232167244,1.76811599731,283.306060791,0.0,0.0,0.0
1519257022021592800,49130,1519257022021230715,weiss_callib,488,487,486,486,489,479,491,487,481,489,490,489,484,489,361,487,5.0232167244,1.78260874748,283.469726562,0.0,0.0,0.0
1519257022101498020,49131,1519257022101197742,weiss_callib,487,486,487,487,488,480,491,488,480,489,489,489,484,489,361,487,5.03728723526,1.86956524849,283.469726562,0.0,0.0,0.0
1519257022221590406,49132,1519257022221213678,weiss_callib,487,486,486,487,488,479,491,487,480,490,490,489,484,490,361,487,5.0232167244,1.94202899933,283.960723877,0.0,0.0,0.0
1519257022341493482,49133,1519257022341176316,weiss_callib,487,487,487,486,488,479,492,488,480,489,490,489,484,489,361,487,5.05135774612,1.84057974815,283.633392334,0.0,0.0,0.0
1519257022421588097,49134,1519257022421205360,weiss_callib,487,486,486,487,488,479,491,488,480,489,489,489,484,489,361,487,5.03728723526,1.78260874748,283.14239502,0.0,0.0,0.0
1519257022541336006,49135,1519257022541161920,weiss_callib,487,486,487,487,488,479,491,487,481,489,490,489,484,490,362,487,5.03728723526,1.85507249832,283.633392334,0.0,0.0,0.0
1519257022661587160,49136,1519257022661208487,weiss_callib,487,486,486,487,489,479,491,487,480,490,490,489,484,489,361,488,5.03728723526,1.86956524849,283.633392334,0.0,0.0,0.0
1519257022741399674,49137,1519257022741182186,weiss_callib,487,487,486,486,488,480,491,488,481,490,490,489,484,489,362,488,5.05135774612,1.82608699799,283.306060791,0.0,0.0,0.0
1519257022861564494,49138,1519257022861178178,weiss_callib,487,487,487,486,488,479,491,487,480,489,490,489,484,490,361,487,5.06542825699,1.89855074883,283.633392334,0.0,0.0,0.0
1519257022941528353,49139,1519257022941223358,weiss_callib,487,487,487,486,488,479,491,487,480,489,489,490,484,489,362,487,4.98100471497,1.75362324715,283.14239502,0.0,0.0,0.0
1519257023061474228,49140,1519257023061182913,weiss_callib,487,486,487,486,489,479,491,487,481,489,489,490,485,490,362,488,5.06542825699,1.85507249832,283.797058105,0.0,0.0,0.0
1519257023181543973,49141,1519257023181177679,weiss_callib,487,487,486,486,489,480,491,487,481,489,489,489,485,489,361,488,5.03728723526,1.86956524849,283.797058105,0.0,0.0,0.0
1519257023261543849,49142,1519257023261209218,weiss_callib,488,487,487,487,488,479,491,487,480,489,490,489,484,489,361,487,4.98100471497,1.78260874748,283.306060791,0.0,0.0,0.0
1519257023381588191,49143,1519257023381230161,weiss_callib,487,486,487,486,488,479,491,487,481,490,489,489,485,489,361,487,5.05135774612,1.94202899933,283.797058105,0.0,0.0,0.0
1519257023501238293,49144,1519257023501137030,weiss_callib,487,487,487,486,488,479,491,487,481,490,490,489,485,489,362,488,5.00914573669,1.82608699799,283.633392334,0.0,0.0,0.0
1519257023581493319,49145,1519257023581207665,weiss_callib,487,486,487,487,488,479,491,487,480,489,490,489,484,489,361,487,4.99507522583,1.73913037777,283.14239502,0.0,0.0,0.0
1519257023701797562,49146,1519257023701386210,weiss_callib,487,486,487,486,489,480,492,488,481,490,489,489,484,489,362,488,5.03728723526,1.86956524849,283.797058105,0.0,0.0,0.0
1519257023821643350,49147,1519257023821214416,weiss_callib,487,486,487,487,488,479,491,487,480,489,490,489,484,489,361,488,4.98100471497,1.86956524849,283.469726562,0.0,0.0,0.0
1519257023901529567,49148,1519257023901219663,weiss_callib,486,487,486,486,488,479,491,487,480,489,490,490,485,490,362,488,5.00914573669,1.84057974815,283.469726562,0.0,0.0,0.0
1519257024021579128,49149,1519257024021182709,weiss_callib,487,486,487,486,488,479,490,487,481,489,489,489,484,489,362,487,4.9528632164,1.79710149765,283.14239502,0.0,0.0,0.0
1519257024141518388,49150,1519257024141182855,weiss_callib,486,486,487,486,489,479,491,488,480,489,489,489,484,489,361,487,5.0232167244,1.75362324715,283.633392334,0.0,0.0,0.0
1519257024221503481,49151,1519257024221184839,weiss_callib,486,486,487,486,488,479,491,487,480,489,489,490,484,489,361,488,5.00914573669,1.75362324715,283.797058105,0.0,0.0,0.0
1519257024341589172,49152,1519257024341212594,weiss_callib,487,486,487,486,488,480,491,487,480,489,489,489,485,489,362,488,5.03728723526,1.81159424782,283.797058105,0.0,0.0,0.0
1519257024421604550,49153,1519257024421237484,weiss_callib,486,486,487,487,489,480,491,488,480,489,490,490,485,490,362,487,5.0232167244,1.81159424782,283.633392334,0.0,0.0,0.0
1519257024541598821,49154,1519257024541243903,weiss_callib,487,486,487,486,488,479,491,487,480,489,490,489,484,489,361,488,5.00914573669,1.79710149765,283.633392334,0.0,0.0,0.0
1519257024661566652,49155,1519257024661217191,weiss_callib,487,486,486,487,489,480,491,488,481,489,489,488,485,489,361,487,5.0232167244,1.75362324715,283.633392334,0.0,0.0,0.0
1519257024741550642,49156,1519257024741214241,weiss_callib,487,487,486,486,489,479,491,488,480,489,490,490,484,489,362,488,4.99507522583,1.69565212727,283.469726562,0.0,0.0,0.0
1519257024861520582,49157,1519257024861176640,weiss_callib,488,487,488,487,489,479,491,488,481,490,490,490,484,490,361,488,5.00914573669,1.79710149765,283.797058105,0.0,0.0,0.0
1519257024981530550,49158,1519257024981177346,weiss_callib,488,487,486,486,488,479,492,488,480,489,490,489,484,490,362,487,4.99507522583,1.7246376276,283.797058105,0.0,0.0,0.0
1519257025061514339,49159,1519257025061195048,weiss_callib,487,486,487,486,488,479,490,487,480,489,490,489,484,489,361,488,5.00914573669,1.73913037777,283.797058105,0.0,0.0,0.0
1519257025181500422,49160,1519257025181176430,weiss_callib,487,487,487,486,488,479,491,488,480,489,490,489,484,490,361,487,4.99507522583,1.75362324715,283.633392334,0.0,0.0,0.0
1519257025301596959,49161,1519257025301219439,weiss_callib,487,486,487,487,489,480,491,487,481,489,490,489,485,490,362,487,5.0232167244,1.69565212727,283.633392334,0.0,0.0,0.0
1519257025381578734,49162,1519257025381202823,weiss_callib,486,487,486,486,488,479,491,487,480,489,489,489,484,489,362,488,5.00914573669,1.82608699799,283.960723877,0.0,0.0,0.0
1519257025501390340,49163,1519257025501165498,weiss_callib,487,486,486,487,488,479,491,487,480,490,490,489,485,489,361,487,5.00914573669,1.76811599731,283.469726562,0.0,0.0,0.0
1519257025581309952,49164,1519257025581149349,weiss_callib,487,487,487,485,488,479,491,488,480,490,490,490,484,489,361,487,5.03728723526,1.84057974815,283.797058105,0.0,0.0,0.0
1519257025701534338,49165,1519257025701208788,weiss_callib,487,487,487,486,489,479,490,488,480,489,489,490,484,489,362,487,5.05135774612,1.84057974815,283.960723877,0.0,0.0,0.0
1519257025821495081,49166,1519257025821214002,weiss_callib,487,487,487,486,489,479,491,487,481,490,490,489,485,490,362,488,5.0232167244,1.71014487743,283.960723877,0.0,0.0,0.0
1519257025901543425,49167,1519257025901212463,weiss_callib,487,486,487,486,489,479,490,487,481,489,489,490,484,490,361,487,4.99507522583,1.75362324715,283.960723877,0.0,0.0,0.0
1519257026021696424,49168,1519257026021440281,weiss_callib,487,486,487,486,488,480,491,487,481,489,490,489,484,489,362,487,5.00914573669,1.7246376276,283.797058105,0.0,0.0,0.0
1519257026142403267,49169,1519257026141192642,weiss_callib,487,486,487,486,488,479,490,487,480,489,489,489,484,489,361,487,4.98100471497,1.76811599731,283.797058105,0.0,0.0,0.0
1519257026221580237,49170,1519257026221198747,weiss_callib,487,487,487,486,489,480,491,488,481,490,490,490,485,490,362,488,5.0232167244,1.73913037777,283.797058105,0.0,0.0,0.0
1519257026341499160,49171,1519257026341178821,weiss_callib,487,486,488,486,488,479,492,487,480,489,490,490,484,489,361,487,5.06542825699,1.75362324715,283.469726562,0.0,0.0,0.0
1519257026461286661,49172,1519257026461172897,weiss_callib,487,487,487,486,488,479,491,487,480,489,490,489,484,489,361,487,5.36091184616,1.98550724983,283.797058105,0.0,0.0,0.0
1519257026541250491,49173,1519257026541146294,weiss_callib,488,486,487,486,488,479,491,487,481,490,490,490,484,489,361,487,4.75587463379,1.52173912525,283.469726562,0.0,0.0,0.0
1519257026661456469,49174,1519257026661175648,weiss_callib,487,487,487,487,489,480,491,488,480,489,489,489,484,489,361,487,5.9237370491,2.27536225319,284.28805542,0.0,0.0,0.0
1519257026781586262,49175,1519257026781214460,weiss_callib,487,486,487,487,488,480,491,487,480,489,490,490,484,490,361,487,5.72674846649,2.26086950302,283.306060791,0.0,0.0,0.0
1519257026861548672,49176,1519257026861193007,weiss_callib,487,486,487,486,488,479,491,487,480,490,490,489,484,489,361,487,5.6704659462,2.33333325386,283.14239502,0.0,0.0,0.0
1519257026981555307,49177,1519257026981192200,weiss_callib,486,486,487,487,489,480,491,487,481,489,490,490,484,489,361,488,5.9237370491,2.21739125252,283.469726562,0.0,0.0,0.0
1519257027061585007,49178,1519257027061218422,weiss_callib,487,487,487,486,489,479,491,488,480,489,490,490,484,489,362,487,5.37498235703,1.9565217495,283.306060791,0.0,0.0,0.0
1519257027181411411,49179,1519257027181181507,weiss_callib,488,486,487,486,489,479,491,488,481,489,490,489,484,489,362,487,5.43126487732,1.98550724983,283.306060791,0.0,0.0,0.0
1519257027301536770,49180,1519257027301177813,weiss_callib,488,486,487,486,489,479,491,487,480,489,489,490,485,488,361,487,5.12171077728,1.76811599731,283.469726562,0.0,0.0,0.0
1519257027381472804,49181,1519257027381187523,weiss_callib,487,487,487,487,489,479,491,488,480,489,489,489,484,489,361,487,5.16392278671,1.78260874748,283.797058105,0.0,0.0,0.0
1519257027501412013,49182,1519257027501185481,weiss_callib,487,486,487,486,488,479,491,487,480,490,490,489,484,489,361,487,5.12171077728,1.71014487743,283.14239502,0.0,0.0,0.0
1519257027581533265,49183,1519257027581208852,weiss_callib,487,487,487,486,488,480,491,488,481,490,490,490,484,489,361,487,4.71366262436,1.52173912525,283.797058105,0.0,0.0,0.0
1519257027701484448,49184,1519257027701186775,weiss_callib,487,486,486,486,489,479,491,487,481,489,490,490,485,490,362,488,4.92472219467,1.59420287609,283.306060791,0.0,0.0,0.0
1519257027821478905,49185,1519257027821176182,weiss_callib,487,487,487,486,488,480,491,487,481,489,489,490,485,489,361,487,4.37596750259,1.21739125252,282.978729248,0.0,0.0,0.0
1519257027901499504,49186,1519257027901207536,weiss_callib,487,486,487,487,489,480,491,487,481,490,489,490,485,490,362,489,4.79808616638,1.59420287609,283.469726562,0.0,0.0,0.0
1519257028021556465,49187,1519257028021195653,weiss_callib,487,486,487,487,488,479,492,487,480,489,490,489,484,489,362,488,5.00914573669,1.63768112659,283.469726562,0.0,0.0,0.0
1519257028141434664,49188,1519257028141178188,weiss_callib,487,486,487,486,488,480,491,488,480,489,490,489,484,489,362,488,5.09356975555,1.65217387676,283.14239502,0.0,0.0,0.0
1519257028221452483,49189,1519257028221192277,weiss_callib,487,486,487,486,489,479,490,488,480,489,489,489,484,490,362,487,5.36091184616,1.94202899933,283.469726562,0.0,0.0,0.0
1519257028341394046,49190,1519257028341171621,weiss_callib,487,487,487,486,488,480,491,487,480,489,489,489,484,489,361,488,5.51568889618,2.05797100067,283.306060791,0.0,0.0,0.0
1519257028461624286,49191,1519257028461255506,weiss_callib,486,487,487,486,488,480,491,487,480,489,490,489,484,489,361,487,5.40312385559,2.02898550034,283.469726562,0.0,0.0,0.0
1519257028581715280,49192,1519257028581183827,weiss_callib,487,486,486,486,488,479,491,487,480,489,490,489,484,489,361,487,5.23427629471,1.84057974815,283.306060791,0.0,0.0,0.0
1519257028661550850,49193,1519257028661245706,weiss_callib,487,487,487,486,488,479,491,487,480,489,489,490,484,489,362,488,5.86745452881,2.3623187542,283.14239502,0.0,0.0,0.0
1519257028781711831,49194,1519257028781226547,weiss_callib,487,487,488,487,489,480,492,488,481,490,491,490,484,490,362,487,5.48754739761,2.05797100067,283.306060791,0.0,0.0,0.0
1519257028861663756,49195,1519257028861253547,weiss_callib,487,487,487,486,488,480,491,487,481,489,491,490,484,489,361,488,5.6001124382,2.08695650101,283.306060791,0.0,0.0,0.0
1519257028981732755,49196,1519257028981227290,weiss_callib,487,486,486,486,488,479,491,487,480,489,490,489,484,489,362,488,5.13578176498,1.6811593771,283.469726562,0.0,0.0,0.0
1519257029101754861,49197,1519257029101266901,weiss_callib,487,486,487,486,488,479,491,487,481,490,490,489,484,490,362,488,5.10764026642,1.79710149765,283.14239502,0.0,0.0,0.0
1519257029181534479,49198,1519257029181236234,weiss_callib,487,487,487,487,488,479,491,487,480,490,489,489,484,490,362,488,5.19206428528,1.92753624916,283.306060791,0.0,0.0,0.0
1519257029301698623,49199,1519257029301234233,weiss_callib,487,487,487,487,489,480,491,488,480,489,490,490,484,490,361,487,5.19206428528,1.84057974815,282.815063477,0.0,0.0,0.0
1519257029421534316,49200,1519257029421224526,weiss_callib,488,486,487,487,488,479,491,487,480,490,490,489,485,489,361,487,4.86843967438,1.60869562626,283.306060791,0.0,0.0,0.0
1519257029501768776,49201,1519257029501277769,weiss_callib,487,486,487,486,488,480,491,487,480,489,490,489,484,489,362,487,4.86843967438,1.62318837643,283.306060791,0.0,0.0,0.0
1519257029621757796,49202,1519257029621264048,weiss_callib,488,486,487,487,488,479,491,488,480,489,491,489,484,489,362,487,4.60109758377,1.47826087475,283.306060791,0.0,0.0,0.0
1519257029701645916,49203,1519257029701241298,weiss_callib,487,487,487,486,488,479,492,488,481,489,489,490,485,490,361,488,4.58702707291,1.37681162357,282.815063477,0.0,0.0,0.0
1519257029821751954,49204,1519257029821261894,weiss_callib,487,487,487,486,489,480,491,487,481,489,490,489,484,489,361,488,4.55888557434,1.43478262424,283.14239502,0.0,0.0,0.0
1519257029941601933,49205,1519257029941166163,weiss_callib,487,486,486,486,488,479,491,487,480,489,490,489,484,489,362,488,4.47446203232,1.30434787273,283.469726562,0.0,0.0,0.0
1519257030021818158,49206,1519257030021291258,weiss_callib,487,487,487,486,488,479,490,488,480,489,490,490,484,489,361,488,4.92472219467,1.59420287609,282.651397705,0.0,0.0,0.0
1519257030141653759,49207,1519257030141202268,weiss_callib,488,487,487,487,489,480,491,487,480,489,490,489,485,489,361,487,5.16392278671,1.78260874748,282.324066162,0.0,0.0,0.0
1519257030261578560,49208,1519257030261205831,weiss_callib,487,486,486,486,488,479,492,487,481,489,490,489,484,490,361,487,5.41719436646,2.01449275017,282.324066162,0.0,0.0,0.0
1519257030341539592,49209,1519257030341225323,weiss_callib,487,487,487,487,488,479,491,487,480,489,489,489,484,489,362,487,5.58604192734,2.10144925117,282.487731934,0.0,0.0,0.0
1519257030461456909,49210,1519257030461176549,weiss_callib,487,487,487,487,489,480,491,488,481,489,490,489,484,490,362,488,5.6563949585,2.18840575218,282.651397705,0.0,0.0,0.0
1519257030581601259,49211,1519257030581210448,weiss_callib,487,487,487,486,488,479,490,487,480,489,490,490,484,490,361,488,5.57197141647,2.02898550034,282.815063477,0.0,0.0,0.0
1519257030661625236,49212,1519257030661229258,weiss_callib,487,486,486,486,488,480,491,487,480,489,489,489,484,489,361,487,5.6001124382,2.02898550034,282.651397705,0.0,0.0,0.0
1519257030781502237,49213,1519257030781186143,weiss_callib,487,487,487,486,488,479,490,487,480,490,489,489,484,489,361,488,5.74081897736,2.23188400269,282.815063477,0.0,0.0,0.0
1519257030861653016,49214,1519257030861244595,weiss_callib,487,487,487,487,489,480,491,488,481,489,490,490,485,490,362,488,5.6141834259,2.13043475151,282.815063477,0.0,0.0,0.0
1519257030981444936,49215,1519257030981168316,weiss_callib,487,487,486,486,488,479,490,488,480,489,490,489,484,489,361,487,5.51568889618,2.01449275017,282.324066162,0.0,0.0,0.0
1519257031101648571,49216,1519257031101226167,weiss_callib,487,486,487,486,488,479,490,487,480,489,490,489,484,489,362,487,5.12171077728,1.7246376276,282.978729248,0.0,0.0,0.0
1519257031181736700,49217,1519257031181249538,weiss_callib,487,487,486,486,489,479,491,487,481,489,489,489,484,489,361,487,4.67145061493,1.44927537441,283.633392334,0.0,0.0,0.0
1519257031301750232,49218,1519257031301259982,weiss_callib,486,487,487,486,489,479,491,488,480,490,490,489,485,490,361,487,4.75587463379,1.44927537441,282.815063477,0.0,0.0,0.0
1519257031421572602,49219,1519257031421215343,weiss_callib,486,487,487,486,489,479,491,487,481,490,489,489,484,489,362,488,4.74180364609,1.53623187542,282.160400391,0.0,0.0,0.0
1519257031501777606,49220,1519257031501289531,weiss_callib,487,487,487,486,489,480,491,487,480,490,490,490,484,489,361,487,4.72773313522,1.49275362492,282.815063477,0.0,0.0,0.0
1519257031621677154,49221,1519257031621260579,weiss_callib,487,487,487,487,488,480,491,487,481,490,490,489,485,490,361,487,4.71366262436,1.40579712391,282.978729248,0.0,0.0,0.0
1519257031741656497,49222,1519257031741205893,weiss_callib,487,486,487,486,488,479,491,487,480,489,490,489,485,489,362,487,4.72773313522,1.42028987408,283.306060791,0.0,0.0,0.0
1519257031821691003,49223,1519257031821255327,weiss_callib,487,487,488,486,489,479,491,487,480,489,489,490,484,490,361,488,4.68552112579,1.3188406229,282.324066162,0.0,0.0,0.0
1519257031941702194,49224,1519257031941229880,weiss_callib,487,486,487,486,488,479,491,487,480,490,489,489,485,489,361,488,4.68552112579,1.37681162357,282.160400391,0.0,0.0,0.0
1519257032061611164,49225,1519257032061228181,weiss_callib,487,486,487,486,488,479,491,487,480,489,490,489,485,489,362,487,4.81215715408,1.50724637508,282.815063477,0.0,0.0,0.0
1519257032141362826,49226,1519257032141174965,weiss_callib,487,486,487,486,488,480,491,487,481,489,489,489,485,489,362,488,4.6433095932,1.42028987408,282.487731934,0.0,0.0,0.0
1519257032261702751,49227,1519257032261227255,weiss_callib,487,487,487,487,488,480,491,486,480,490,490,490,484,489,361,488,4.75587463379,1.39130437374,282.160400391,0.0,0.0,0.0
1519257032341635818,49228,1519257032341251347,weiss_callib,486,486,487,486,488,479,490,488,480,489,489,489,484,489,361,488,4.75587463379,1.47826087475,282.651397705,0.0,0.0,0.0
1519257032461430495,49229,1519257032461205994,weiss_callib,487,486,487,487,489,480,491,488,481,489,490,490,485,490,362,488,4.72773313522,1.50724637508,282.815063477,0.0,0.0,0.0
1519257032581748082,49230,1519257032581258258,weiss_callib,487,487,487,486,489,479,490,487,481,489,489,489,484,489,361,488,4.79808616638,1.55072462559,282.651397705,0.0,0.0,0.0
1519257032661528287,49231,1519257032661213690,weiss_callib,487,487,487,486,488,480,491,487,481,490,491,490,485,489,361,488,4.68552112579,1.46376812458,282.487731934,0.0,0.0,0.0
1519257032781529566,49232,1519257032781220201,weiss_callib,487,486,486,487,488,479,491,487,481,490,490,490,484,489,363,487,4.75587463379,1.46376812458,282.487731934,0.0,0.0,0.0
1519257032901553359,49233,1519257032901226130,weiss_callib,487,486,486,486,488,479,491,487,480,489,490,489,485,490,362,488,4.81215715408,1.47826087475,282.487731934,0.0,0.0,0.0
1519257032981525332,49234,1519257032981205738,weiss_callib,487,487,487,487,488,479,491,487,480,489,490,489,484,489,361,487,4.71366262436,1.40579712391,282.160400391,0.0,0.0,0.0
1519257033101557961,49235,1519257033101210160,weiss_callib,487,487,486,487,489,479,492,488,481,490,490,489,485,490,362,488,4.81215715408,1.49275362492,282.815063477,0.0,0.0,0.0
1519257033181596006,49236,1519257033181211790,weiss_callib,487,486,486,487,488,479,490,488,480,490,490,489,484,489,361,487,4.71366262436,1.43478262424,282.487731934,0.0,0.0,0.0
1519257033301523087,49237,1519257033301184517,weiss_callib,487,487,486,486,488,479,491,487,480,489,490,489,484,490,361,488,4.81215715408,1.55072462559,282.651397705,0.0,0.0,0.0
1519257033421463335,49238,1519257033421195061,weiss_callib,488,487,486,486,488,479,491,488,480,489,490,489,484,490,361,487,4.79808616638,1.53623187542,282.487731934,0.0,0.0,0.0
1519257033501913564,49239,1519257033501222882,weiss_callib,487,487,487,486,488,479,490,487,480,489,489,489,484,489,361,488,4.74180364609,1.46376812458,282.324066162,0.0,0.0,0.0
1519257033621476033,49240,1519257033621195639,weiss_callib,487,486,487,486,488,480,491,488,481,490,490,490,485,490,361,488,4.84029817581,1.59420287609,283.14239502,0.0,0.0,0.0
1519257033741646430,49241,1519257033741257321,weiss_callib,486,486,486,486,489,480,490,487,481,490,490,489,484,490,361,487,4.78401565552,1.57971012592,283.14239502,0.0,0.0,0.0
1519257033821689175,49242,1519257033821282504,weiss_callib,488,487,487,487,489,480,491,488,480,489,490,489,484,489,361,488,4.76994514465,1.42028987408,282.324066162,0.0,0.0,0.0
1519257033941708457,49243,1519257033941236705,weiss_callib,486,487,487,486,489,480,491,487,480,490,489,489,484,489,362,487,4.75587463379,1.52173912525,282.487731934,0.0,0.0,0.0
1519257034061729355,49244,1519257034061265622,weiss_callib,488,487,488,487,489,479,490,487,480,489,490,489,484,489,361,488,4.78401565552,1.47826087475,282.815063477,0.0,0.0,0.0
1519257034141528836,49245,1519257034141190043,weiss_callib,487,486,487,486,488,479,491,487,480,489,490,489,484,489,361,487,4.79808616638,1.47826087475,282.487731934,0.0,0.0,0.0
1519257034261736719,49246,1519257034261268044,weiss_callib,487,486,487,486,488,479,491,487,480,490,489,489,484,490,361,487,4.71366262436,1.44927537441,282.651397705,0.0,0.0,0.0
1519257034341650030,49247,1519257034341289366,weiss_callib,488,487,487,486,489,480,490,487,481,489,490,489,484,490,362,487,4.78401565552,1.52173912525,282.978729248,0.0,0.0,0.0
1519257034461664069,49248,1519257034461216552,weiss_callib,487,486,487,487,488,480,491,487,480,489,490,490,484,489,362,487,4.75587463379,1.47826087475,282.324066162,0.0,0.0,0.0
1519257034581599599,49249,1519257034581246061,weiss_callib,487,486,487,486,488,480,491,487,480,489,491,489,485,490,362,488,4.74180364609,1.42028987408,282.160400391,0.0,0.0,0.0
1519257034661797963,49250,1519257034661261557,weiss_callib,488,486,486,486,489,479,491,487,480,489,490,489,483,489,362,488,4.81215715408,1.52173912525,282.651397705,0.0,0.0,0.0
1519257034781605383,49251,1519257034781246405,weiss_callib,487,487,487,486,488,479,490,487,480,489,489,489,484,489,361,487,4.75587463379,1.42028987408,282.487731934,0.0,0.0,0.0
1519257034901522835,49252,1519257034901226014,weiss_callib,488,486,487,486,488,479,490,487,480,490,490,489,484,489,361,487,4.76994514465,1.49275362492,282.487731934,0.0,0.0,0.0
1519257034981576322,49253,1519257034981225012,weiss_callib,487,487,487,486,488,479,491,487,480,489,490,489,484,489,361,488,4.84029817581,1.55072462559,282.815063477,0.0,0.0,0.0
1519257035101598229,49254,1519257035101225420,weiss_callib,487,486,487,486,488,480,491,488,480,489,490,489,485,489,362,487,4.78401565552,1.52173912525,282.487731934,0.0,0.0,0.0
1519257035221546700,49255,1519257035221220463,weiss_callib,487,487,487,486,488,479,490,487,480,490,490,489,484,489,361,487,4.82622766495,1.52173912525,282.651397705,0.0,0.0,0.0
1519257035301520105,49256,1519257035301225458,weiss_callib,487,487,487,486,489,480,491,487,480,489,490,489,484,489,361,488,4.75587463379,1.39130437374,282.324066162,0.0,0.0,0.0
1519257035421601362,49257,1519257035421223978,weiss_callib,487,486,487,486,488,480,491,487,480,489,490,489,485,489,361,488,4.76994514465,1.50724637508,282.324066162,0.0,0.0,0.0
1519257035501608916,49258,1519257035501241048,weiss_callib,487,487,487,487,488,479,491,487,480,489,490,489,484,489,361,487,4.84029817581,1.55072462559,282.651397705,0.0,0.0,0.0
1519257035621555814,49259,1519257035621207105,weiss_callib,487,487,487,486,488,480,491,487,480,490,489,489,485,489,361,487,4.81215715408,1.62318837643,282.651397705,0.0,0.0,0.0
1519257035741478481,49260,1519257035741197981,weiss_callib,487,486,487,486,488,479,491,488,481,490,490,489,484,490,362,488,4.79808616638,1.52173912525,282.324066162,0.0,0.0,0.0
1519257035821611804,49261,1519257035821312344,weiss_callib,487,486,487,486,488,480,492,487,480,489,490,490,484,489,361,488,4.78401565552,1.52173912525,282.487731934,0.0,0.0,0.0
1519257035941806744,49262,1519257035941222437,weiss_callib,487,486,487,486,488,480,490,487,481,489,490,489,484,489,361,487,4.82622766495,1.56521737576,282.815063477,0.0,0.0,0.0
1519257036061672825,49263,1519257036061191806,weiss_callib,487,486,487,486,488,480,491,488,481,490,489,489,485,489,362,488,4.85436916351,1.63768112659,282.815063477,0.0,0.0,0.0
1519257036141576741,49264,1519257036141213937,weiss_callib,487,486,487,486,488,479,491,487,480,489,489,490,485,490,362,487,4.81215715408,1.53623187542,282.651397705,0.0,0.0,0.0
1519257036261747228,49265,1519257036261262536,weiss_callib,488,487,487,487,488,479,491,487,481,490,490,489,484,489,361,488,4.92472219467,1.62318837643,282.324066162,0.0,0.0,0.0
1519257036381571603,49266,1519257036381223090,weiss_callib,487,486,487,486,489,479,491,488,480,489,490,489,484,489,362,487,4.88251018524,1.60869562626,282.324066162,0.0,0.0,0.0
1519257036461598027,49267,1519257036461244646,weiss_callib,487,486,487,486,488,480,491,487,480,489,490,489,484,489,361,487,5.51568889618,2.14492750168,282.487731934,0.0,0.0,0.0
1519257036581371495,49268,1519257036581186048,weiss_callib,487,486,486,486,488,479,491,487,480,489,490,489,484,489,362,488,5.57197141647,2.10144925117,282.487731934,0.0,0.0,0.0
1519257036701327456,49269,1519257036701150847,weiss_callib,487,486,487,487,488,479,491,488,480,489,489,489,484,489,361,488,5.6141834259,2.24637675285,289.525360107,0.0,0.0,0.0
1519257036781377818,49270,1519257036781163021,weiss_callib,486,487,487,486,488,480,491,487,480,489,489,489,484,489,361,488,5.88152503967,2.34782600403,295.090026855,0.0,0.0,0.0
1519257036901396840,49271,1519257036901175537,weiss_callib,487,486,487,487,488,480,491,488,481,490,489,489,484,489,351,488,5.48754739761,2.3623187542,290.834686279,0.0,0.0,0.0
1519257036981548659,49272,1519257036981224146,weiss_callib,487,486,486,487,489,480,492,488,480,489,489,489,484,489,340,487,5.36091184616,2.26086950302,292.471343994,0.0,0.0,0.0
1519257037101537098,49273,1519257037101176582,weiss_callib,487,486,487,486,489,480,490,487,480,489,490,489,484,490,329,488,5.20613479614,1.86956524849,287.725036621,0.0,0.0,0.0
1519257037221524108,49274,1519257037221198452,weiss_callib,487,487,487,486,489,480,491,487,480,489,490,489,484,490,328,487,5.36091184616,1.28985512257,290.671020508,0.0,0.0,0.0
1519257037301410479,49275,1519257037301195201,weiss_callib,487,486,486,487,488,479,490,488,480,489,490,489,484,490,318,488,5.96594905853,1.76811599731,310.965637207,0.0,0.0,0.0
1519257037421390581,49276,1519257037421165459,weiss_callib,487,486,487,486,488,480,491,487,480,489,490,489,484,490,306,488,5.85338401794,1.59420287609,309.165313721,0.0,0.0,0.0
1519257037541463333,49277,1519257037541221449,weiss_callib,487,487,486,487,488,479,491,487,480,489,490,490,484,489,303,487,5.23427629471,1.6811593771,298.8543396,0.0,0.0,0.0
1519257037621601925,49278,1519257037621210097,weiss_callib,487,486,486,486,489,480,492,488,481,489,490,489,484,489,290,488,6.20514965057,2.15942025185,308.674316406,0.0,0.0,0.0
1519257037741273002,49279,1519257037741177985,weiss_callib,487,486,487,486,488,479,491,487,480,490,490,489,485,489,290,488,5.41719436646,1.63768112659,310.14730835,0.0,0.0,0.0
1519257037821547576,49280,1519257037821247028,weiss_callib,487,486,487,486,488,479,491,487,481,490,490,489,484,490,289,488,6.20514965057,2.13043475151,309.983642578,0.0,0.0,0.0
1519257037941533178,49281,1519257037941209061,weiss_callib,487,487,487,486,489,480,492,487,480,489,490,489,484,489,290,488,6.6272687912,2.43478250504,309.656311035,0.0,0.0,0.0
1519257038061603470,49282,1519257038061211586,weiss_callib,486,487,487,486,488,479,491,487,480,489,490,489,484,491,290,488,6.31771469116,2.20289850235,309.656311035,0.0,0.0,0.0
1519257038141621823,49283,1519257038141233654,weiss_callib,487,486,487,486,488,479,491,487,480,489,490,489,484,490,290,487,7.44336557388,3.10144925117,309.983642578,0.0,0.0,0.0
1519257038261592476,49284,1519257038261237823,weiss_callib,487,487,487,486,488,479,491,487,481,489,490,489,485,490,290,489,6.71169281006,2.62318849564,309.983642578,0.0,0.0,0.0
1519257038381630563,49285,1519257038381205754,weiss_callib,488,486,487,486,489,479,491,487,480,489,490,489,484,489,289,488,6.28957366943,2.18840575218,309.819976807,0.0,0.0,0.0
1519257038461597754,49286,1519257038461221602,weiss_callib,487,486,487,486,488,479,490,487,480,490,490,489,484,489,290,488,5.88152503967,1.92753624916,309.819976807,0.0,0.0,0.0
1519257038581714092,49287,1519257038581206673,weiss_callib,487,486,487,486,488,480,490,487,480,489,490,489,485,490,289,488,6.13479661942,2.15942025185,310.801971436,0.0,0.0,0.0
1519257038661660068,49288,1519257038661291723,weiss_callib,487,486,487,486,488,479,491,487,480,490,490,490,484,489,290,488,6.38806819916,2.23188400269,310.638305664,0.0,0.0,0.0
1519257038781797927,49289,1519257038781263540,weiss_callib,487,487,486,486,488,479,491,487,481,489,490,489,484,489,291,488,6.20514965057,2.08695650101,310.638305664,0.0,0.0,0.0
1519257038901600649,49290,1519257038901213783,weiss_callib,487,486,487,486,488,479,491,488,480,489,491,489,484,490,290,488,6.92275238037,2.53623199463,310.801971436,0.0,0.0,0.0
1519257038981522516,49291,1519257038981224058,weiss_callib,487,487,487,487,489,480,490,488,480,489,490,489,484,490,290,488,7.13381195068,2.82608699799,311.456634521,0.0,0.0,0.0
1519257039101485474,49292,1519257039101183975,weiss_callib,486,486,487,487,488,480,491,487,480,489,489,489,485,489,289,488,7.6544251442,3.0434782505,310.801971436,0.0,0.0,0.0
1519257039221552496,49293,1519257039221202703,weiss_callib,487,486,487,486,489,479,491,487,480,489,490,490,484,490,290,489,8.21725082397,3.34782600403,310.310974121,0.0,0.0,0.0
1519257039301681961,49294,1519257039301288300,weiss_callib,487,487,487,486,488,480,491,488,481,489,490,489,484,489,289,488,7.274518013,2.88405799866,310.965637207,0.0,0.0,0.0
1519257039421665391,49295,1519257039421258463,weiss_callib,487,487,487,486,488,479,491,488,480,490,490,489,484,489,290,488,6.66948080063,2.34782600403,311.620300293,0.0,0.0,0.0
1519257039541394498,49296,1519257039541207493,weiss_callib,487,487,487,486,489,480,491,487,480,490,490,489,484,489,290,488,5.58604192734,1.62318837643,310.474639893,0.0,0.0,0.0
1519257039621761542,49297,1519257039621282423,weiss_callib,487,486,487,486,488,480,491,487,481,489,490,489,484,490,290,488,6.02223157883,1.86956524849,310.801971436,0.0,0.0,0.0
1519257039741551738,49298,1519257039741228084,weiss_callib,487,486,487,486,488,480,491,487,480,489,490,489,484,490,289,487,6.28957366943,2.11594200134,311.29296875,0.0,0.0,0.0
1519257039861740929,49299,1519257039861262817,weiss_callib,487,486,487,486,488,480,491,487,480,490,490,489,484,489,290,488,6.88054037094,2.53623199463,310.965637207,0.0,0.0,0.0
1519257039941560951,49300,1519257039941235722,weiss_callib,487,486,487,486,488,480,491,487,480,489,490,489,484,490,291,488,7.37301254272,2.72463774681,309.819976807,0.0,0.0,0.0
1519257040061751510,49301,1519257040061262298,weiss_callib,487,486,486,487,489,479,491,488,480,490,490,489,485,490,289,488,6.97903490067,2.57971024513,309.819976807,0.0,0.0,0.0
1519257040141447072,49302,1519257040141186532,weiss_callib,487,486,487,487,488,479,491,487,480,489,490,489,484,490,290,488,7.49964809418,2.85507249832,311.129302979,0.0,0.0,0.0
1519257040261469965,49303,1519257040261202301,weiss_callib,487,486,486,487,489,479,491,487,481,490,490,490,484,489,289,489,8.35795688629,3.49275350571,311.947631836,0.0,0.0,0.0
1519257040381502338,49304,1519257040381199414,weiss_callib,487,487,487,486,488,479,491,487,481,489,490,490,484,489,291,488,7.58407211304,3.07246375084,309.492645264,0.0,0.0,0.0
1519257040461477632,49305,1519257040461218652,weiss_callib,487,487,487,486,488,480,491,487,480,489,491,489,484,489,290,488,7.69663715363,3.08695650101,310.310974121,0.0,0.0,0.0
1519257040581584142,49306,1519257040581208933,weiss_callib,487,486,487,486,488,479,491,487,481,489,490,490,485,490,290,488,7.37301254272,2.88405799866,309.819976807,0.0,0.0,0.0
1519257040701563991,49307,1519257040701192675,weiss_callib,487,487,486,486,489,479,492,487,480,490,491,490,485,490,290,488,7.6544251442,3.10144925117,310.801971436,0.0,0.0,0.0
1519257040781527889,49308,1519257040781231165,weiss_callib,487,487,487,487,488,480,491,487,480,489,490,490,484,489,289,487,8.00619125366,3.24637675285,310.310974121,0.0,0.0,0.0
1519257040901701640,49309,1519257040901368963,weiss_callib,488,486,487,486,488,480,491,488,480,489,490,490,484,489,290,488,7.54186010361,2.94202899933,310.638305664,0.0,0.0,0.0
1519257041022068014,49310,1519257041021195097,weiss_callib,487,486,487,487,488,479,492,487,480,490,490,489,484,490,290,488,7.9217672348,3.17391300201,311.29296875,0.0,0.0,0.0
1519257041101896676,49311,1519257041101242733,weiss_callib,486,486,487,486,488,479,491,487,480,489,490,489,484,489,290,488,8.00619125366,3.27536225319,310.801971436,0.0,0.0,0.0
1519257041221701430,49312,1519257041221244136,weiss_callib,487,486,487,486,488,480,491,487,480,489,490,490,485,490,289,487,8.25946235657,3.4492752552,310.638305664,0.0,0.0,0.0
1519257041301732173,49313,1519257041301245085,weiss_callib,487,487,487,487,489,480,491,487,480,489,490,489,485,490,291,488,8.20318031311,3.33333325386,310.638305664,0.0,0.0,0.0
1519257041421749433,49314,1519257041421257840,weiss_callib,487,487,487,486,488,479,491,487,481,489,490,489,484,489,290,488,7.94990873337,3.23188400269,311.129302979,0.0,0.0,0.0
1519257041541696741,49315,1519257041541203008,weiss_callib,487,487,488,487,489,480,491,487,480,489,490,489,484,489,289,488,7.99212026596,3.20289850235,310.638305664,0.0,0.0,0.0
1519257041621772482,49316,1519257041621294786,weiss_callib,487,486,486,486,488,479,491,488,480,489,490,489,484,490,290,488,8.13282680511,3.26086950302,310.638305664,0.0,0.0,0.0
1519257041741670758,49317,1519257041741205831,weiss_callib,487,486,487,486,488,479,491,487,480,489,490,489,484,489,290,488,7.99212026596,3.15942025185,310.801971436,0.0,0.0,0.0
1519257041861724386,49318,1519257041861262697,weiss_callib,487,487,487,487,488,480,491,487,480,489,490,490,484,489,290,488,7.72477817535,3.0,310.965637207,0.0,0.0,0.0
1519257041941487352,49319,1519257041941217472,weiss_callib,488,487,487,486,488,479,491,487,480,489,490,489,484,490,289,488,7.76699018478,3.01449275017,310.801971436,0.0,0.0,0.0
1519257042061744900,49320,1519257042061262227,weiss_callib,487,487,488,486,488,480,491,488,481,489,490,490,484,489,289,488,7.87955522537,3.13043475151,310.474639893,0.0,0.0,0.0
1519257042181610901,49321,1519257042181227166,weiss_callib,487,486,487,486,488,479,491,487,480,489,490,489,484,489,290,488,8.25946235657,3.33333325386,310.638305664,0.0,0.0,0.0
1519257042261748289,49322,1519257042261261823,weiss_callib,487,487,487,486,488,479,491,487,480,490,490,489,484,490,290,488,8.13282680511,3.28985500336,310.638305664,0.0,0.0,0.0
1519257042381539583,49323,1519257042381198271,weiss_callib,487,487,487,487,488,480,491,487,480,490,490,489,484,489,290,487,8.04840278625,3.17391300201,310.638305664,0.0,0.0,0.0
1519257042501471008,49324,1519257042501210949,weiss_callib,488,487,486,486,488,479,491,488,480,489,490,489,485,490,289,488,8.04840278625,3.21739125252,310.474639893,0.0,0.0,0.0
1519257042581551652,49325,1519257042581217372,weiss_callib,487,487,487,487,488,479,490,487,480,489,491,489,484,489,290,488,8.04840278625,3.30434775352,310.965637207,0.0,0.0,0.0
1519257042701531446,49326,1519257042701207207,weiss_callib,487,487,487,487,489,480,491,487,481,489,490,489,485,490,290,488,8.13282680511,3.23188400269,310.638305664,0.0,0.0,0.0
1519257042781304141,49327,1519257042781175631,weiss_callib,487,487,487,486,489,479,491,488,481,489,490,489,484,490,290,488,8.13282680511,3.21739125252,310.474639893,0.0,0.0,0.0
1519257042901585241,49328,1519257042901227351,weiss_callib,487,487,487,487,489,480,491,488,480,490,490,489,485,490,289,488,8.13282680511,3.30434775352,310.801971436,0.0,0.0,0.0
1519257043021581096,49329,1519257043021210783,weiss_callib,487,486,486,487,488,479,491,487,480,490,490,489,485,489,290,488,8.20318031311,3.31884050369,310.638305664,0.0,0.0,0.0
1519257043101614089,49330,1519257043101239135,weiss_callib,487,487,487,486,489,479,491,488,480,490,490,489,485,490,289,488,8.25946235657,3.27536225319,310.14730835,0.0,0.0,0.0
1519257043221413571,49331,1519257043221190818,weiss_callib,487,486,487,486,489,479,491,487,480,490,490,489,485,489,289,487,8.18910980225,3.21739125252,310.310974121,0.0,0.0,0.0
1519257043301458159,49332,1519257043301202175,weiss_callib,487,487,487,486,488,479,490,488,481,490,490,489,484,490,289,487,8.34388637543,3.37681150436,310.310974121,0.0,0.0,0.0
1519257043421632427,49333,1519257043421203870,weiss_callib,487,487,487,487,488,479,491,487,481,489,490,489,484,490,290,488,8.6393699646,3.57971024513,311.129302979,0.0,0.0,0.0
1519257043541652809,49334,1519257043541193826,weiss_callib,487,486,487,486,488,480,490,488,480,490,491,489,485,490,290,489,8.94892406464,3.81159424782,312.43862915,0.0,0.0,0.0
1519257043621768613,49335,1519257043621350434,weiss_callib,486,487,487,486,488,479,491,487,481,490,490,489,484,490,290,488,8.37202739716,3.33333325386,310.474639893,0.0,0.0,0.0
1519257043741707717,49336,1519257043741223817,weiss_callib,487,487,487,486,488,479,491,487,480,489,490,489,484,489,289,487,8.83635807037,3.66666674614,311.456634521,0.0,0.0,0.0
1519257043861742853,49337,1519257043861268345,weiss_callib,487,486,486,487,488,479,491,488,480,490,490,489,484,490,291,488,7.90769672394,3.05797100067,310.310974121,0.0,0.0,0.0
1519257043941636210,49338,1519257043941257627,weiss_callib,487,486,487,486,488,480,491,488,480,489,491,489,484,490,290,487,5.44533538818,1.13043475151,309.819976807,0.0,0.0,0.0
1519257044061751860,49339,1519257044061264487,weiss_callib,487,487,488,486,488,479,491,487,480,489,490,489,484,490,291,488,5.13578176498,0.884057998657,309.656311035,0.0,0.0,0.0
1519257044181688239,49340,1519257044181226043,weiss_callib,487,486,486,486,488,480,491,487,480,489,490,489,484,490,290,488,6.71169281006,2.15942025185,313.420623779,0.0,0.0,0.0
1519257044261578643,49341,1519257044261215009,weiss_callib,487,487,487,486,488,480,490,487,481,489,490,489,484,489,289,488,6.10665559769,1.75362324715,312.43862915,0.0,0.0,0.0
1519257044381535663,49342,1519257044381207833,weiss_callib,488,487,487,486,489,479,491,488,480,489,491,490,484,489,290,487,6.26143217087,1.76811599731,311.783966064,0.0,0.0,0.0
1519257044501622350,49343,1519257044501215456,weiss_callib,486,487,487,487,489,480,492,488,481,489,491,489,485,490,290,488,6.96496391296,2.3623187542,311.129302979,0.0,0.0,0.0
1519257044581516809,49344,1519257044581211035,weiss_callib,487,486,487,487,488,479,491,488,480,489,490,489,484,490,290,488,6.6272687912,2.20289850235,311.947631836,0.0,0.0,0.0
1519257044701697047,49345,1519257044701223160,weiss_callib,488,487,487,486,488,479,491,487,480,489,490,489,484,489,290,487,6.19107913971,1.98550724983,311.29296875,0.0,0.0,0.0
