%time,field.header.seq,field.header.stamp,field.header.frame_id,field.adc0,field.adc1,field.adc2,field.adc3,field.adc4,field.adc5,field.adc6,field.adc7,field.adc8,field.adc9,field.adc10,field.adc11,field.adc12,field.adc13,field.adc14,field.adc15,field.nano.force.x,field.nano.force.y,field.nano.force.z,field.nano.torque.x,field.nano.torque.y,field.nano.torque.z
1519256868581414191,47675,1519256868581155175,weiss_callib,488,488,487,488,489,480,492,489,481,490,489,489,484,489,484,487,0.830167412758,0.202898547053,65.6301116943,0.0,0.0,0.0
1519256868701368084,47676,1519256868701180479,weiss_callib,488,488,487,487,489,480,491,488,481,490,489,490,485,489,484,487,0.75981426239,0.246376812458,65.6301116943,0.0,0.0,0.0
1519256868781537436,47677,1519256868781220079,weiss_callib,488,487,487,488,489,480,492,488,482,490,489,489,486,488,484,487,0.816096782684,0.246376812458,65.6301116943,0.0,0.0,0.0
1519256868901636509,47678,1519256868901189354,weiss_callib,488,487,488,487,489,480,491,488,481,490,489,489,485,488,484,488,0.787955522537,0.23188406229,65.3027801514,0.0,0.0,0.0
1519256869021664744,47679,1519256869021237048,weiss_callib,489,488,487,488,489,480,492,488,481,489,490,489,485,489,484,486,0.802026152611,0.202898547053,65.6301116943,0.0,0.0,0.0
1519256869101563688,47680,1519256869101219885,weiss_callib,488,487,488,487,490,480,492,488,481,490,489,490,485,488,484,487,0.816096782684,0.23188406229,65.6301116943,0.0,0.0,0.0
1519256869221565487,47681,1519256869221219700,weiss_callib,488,487,487,488,489,480,492,488,481,490,490,490,485,489,484,486,0.816096782684,0.246376812458,65.6301116943,0.0,0.0,0.0
1519256869341422434,47682,1519256869341183820,weiss_callib,488,487,487,488,489,481,492,488,481,489,489,489,485,488,484,487,0.787955522537,0.217391297221,65.4664459229,0.0,0.0,0.0
1519256869421446091,47683,1519256869421213709,weiss_callib,487,487,487,487,490,480,491,488,481,490,489,490,485,488,485,487,0.802026152611,0.202898547053,65.3027801514,0.0,0.0,0.0
1519256869541330442,47684,1519256869541175247,weiss_callib,488,487,488,487,489,480,492,488,481,489,489,489,485,489,485,488,0.802026152611,0.246376812458,65.4664459229,0.0,0.0,0.0
1519256869661456423,47685,1519256869661194356,weiss_callib,487,487,488,488,489,480,492,488,481,490,489,490,485,488,484,487,0.830167412758,0.246376812458,65.4664459229,0.0,0.0,0.0
1519256869741386645,47686,1519256869741196130,weiss_callib,488,488,488,488,489,480,491,488,481,491,489,490,485,489,485,487,0.816096782684,0.217391297221,65.4664459229,0.0,0.0,0.0
1519256869861595208,47687,1519256869861311324,weiss_callib,488,488,488,486,489,480,492,488,481,489,489,489,486,489,484,487,0.802026152611,0.23188406229,65.4664459229,0.0,0.0,0.0
1519256869941723641,47688,1519256869941208749,weiss_callib,488,488,488,488,489,480,491,488,481,489,489,490,485,489,485,487,0.787955522537,0.246376812458,65.4664459229,0.0,0.0,0.0
1519256870061603629,47689,1519256870061215823,weiss_callib,489,487,487,488,489,480,492,488,481,490,489,489,485,489,484,486,0.830167412758,0.275362312794,65.4664459229,0.0,0.0,0.0
1519256870181741436,47690,1519256870181261435,weiss_callib,488,488,488,488,490,480,492,488,482,490,490,490,486,489,485,487,0.830167412758,0.246376812458,65.4664459229,0.0,0.0,0.0
1519256870261627861,47691,1519256870261249770,weiss_callib,488,487,487,487,489,480,491,488,481,489,489,490,485,489,485,487,0.787955522537,0.217391297221,65.4664459229,0.0,0.0,0.0
1519256870381531623,47692,1519256870381205125,weiss_callib,488,487,488,487,489,480,492,488,481,489,490,489,485,488,484,487,0.75981426239,0.23188406229,65.3027801514,0.0,0.0,0.0
1519256870501667021,47693,1519256870501228741,weiss_callib,488,488,487,487,489,480,491,488,481,489,490,490,486,489,485,487,0.802026152611,0.289855062962,65.3027801514,0.0,0.0,0.0
1519256870581514085,47694,1519256870581210924,weiss_callib,488,488,487,487,489,480,492,488,481,490,489,489,485,488,484,487,0.802026152611,0.304347813129,65.4664459229,0.0,0.0,0.0
1519256870701527560,47695,1519256870701216485,weiss_callib,488,488,488,487,489,480,492,488,481,490,489,489,485,489,485,487,0.787955522537,0.23188406229,65.3027801514,0.0,0.0,0.0
1519256870781501629,47696,1519256870781192408,weiss_callib,488,487,488,488,489,480,492,488,481,490,489,489,484,489,484,487,0.802026152611,0.202898547053,65.1391143799,0.0,0.0,0.0
1519256870901610290,47697,1519256870901261299,weiss_callib,488,487,488,487,489,480,492,488,482,490,490,490,486,489,484,487,0.816096782684,0.217391297221,65.3027801514,0.0,0.0,0.0
1519256871021690328,47698,1519256871021238441,weiss_callib,487,487,487,487,489,480,492,488,481,490,489,489,484,488,484,486,0.830167412758,0.260869562626,65.4664459229,0.0,0.0,0.0
1519256871101691902,47699,1519256871101285946,weiss_callib,487,488,487,487,489,481,492,489,481,490,489,489,485,489,484,487,0.802026152611,0.217391297221,65.3027801514,0.0,0.0,0.0
1519256871221575379,47700,1519256871221220807,weiss_callib,488,487,488,487,489,480,492,488,481,489,490,489,485,488,484,487,0.802026152611,0.217391297221,64.9754486084,0.0,0.0,0.0
1519256871341522592,47701,1519256871341174881,weiss_callib,488,488,488,487,490,481,492,489,482,490,490,490,485,488,484,487,0.802026152611,0.173913046718,65.1391143799,0.0,0.0,0.0
1519256871421435280,47702,1519256871421214766,weiss_callib,487,487,488,488,489,480,492,489,481,489,489,490,485,488,484,487,0.816096782684,0.246376812458,65.4664459229,0.0,0.0,0.0
1519256871541505765,47703,1519256871541202401,weiss_callib,488,488,487,487,489,481,491,488,481,490,489,489,486,488,484,487,0.802026152611,0.260869562626,65.3027801514,0.0,0.0,0.0
1519256871661582527,47704,1519256871661220938,weiss_callib,488,487,488,487,490,480,492,488,481,490,489,490,485,488,485,486,0.802026152611,0.246376812458,64.9754486084,0.0,0.0,0.0
1519256871741524019,47705,1519256871741216264,weiss_callib,487,487,488,487,489,480,491,488,481,489,489,489,486,488,484,487,0.787955522537,0.23188406229,64.9754486084,0.0,0.0,0.0
1519256871861700260,47706,1519256871861210927,weiss_callib,487,488,488,487,489,480,491,488,481,490,489,490,485,489,485,487,0.830167412758,0.217391297221,65.1391143799,0.0,0.0,0.0
1519256871941438964,47707,1519256871941207705,weiss_callib,488,488,487,487,489,480,491,488,482,490,489,490,485,488,484,488,0.830167412758,0.260869562626,65.3027801514,0.0,0.0,0.0
1519256872061536138,47708,1519256872061202113,weiss_callib,487,487,488,487,489,480,491,488,481,490,489,490,485,488,485,487,0.830167412758,0.246376812458,65.3027801514,0.0,0.0,0.0
1519256872181537035,47709,1519256872181175722,weiss_callib,488,487,488,488,489,480,491,488,481,490,489,489,486,488,484,486,0.816096782684,0.246376812458,65.1391143799,0.0,0.0,0.0
1519256872261492754,47710,1519256872261217695,weiss_callib,488,487,488,487,490,481,492,488,481,490,489,489,485,489,484,487,0.816096782684,0.260869562626,65.1391143799,0.0,0.0,0.0
1519256872381784191,47711,1519256872381210669,weiss_callib,488,487,488,487,489,481,491,488,482,490,489,489,485,489,484,487,0.844238102436,0.246376812458,64.9754486084,0.0,0.0,0.0
1519256872501581624,47712,1519256872501213500,weiss_callib,487,488,487,488,490,480,492,488,481,489,490,489,485,489,484,487,0.844238102436,0.275362312794,65.3027801514,0.0,0.0,0.0
1519256872581427466,47713,1519256872581205278,weiss_callib,488,487,488,487,488,481,492,488,481,490,489,489,485,488,484,487,0.816096782684,0.23188406229,65.1391143799,0.0,0.0,0.0
1519256872701512542,47714,1519256872701204598,weiss_callib,488,487,488,487,489,480,491,488,481,490,489,490,485,489,485,487,0.787955522537,0.217391297221,64.9754486084,0.0,0.0,0.0
1519256872821564175,47715,1519256872821194057,weiss_callib,488,487,488,487,489,481,491,488,481,489,489,490,485,488,484,488,0.816096782684,0.275362312794,65.1391143799,0.0,0.0,0.0
1519256872901613059,47716,1519256872901231415,weiss_callib,488,487,488,487,489,480,491,488,481,490,489,490,485,488,484,486,0.844238102436,0.3188405931,65.1391143799,0.0,0.0,0.0
1519256873021570551,47717,1519256873021203741,weiss_callib,488,487,487,487,490,480,491,488,481,489,489,489,485,489,484,487,0.830167412758,0.217391297221,64.9754486084,0.0,0.0,0.0
1519256873101745341,47718,1519256873101252164,weiss_callib,488,488,488,487,489,481,492,488,481,491,489,489,485,488,485,487,0.830167412758,0.15942029655,64.9754486084,0.0,0.0,0.0
1519256873221619922,47719,1519256873221239640,weiss_callib,487,487,487,487,489,480,492,488,481,489,489,490,486,488,485,487,0.830167412758,0.23188406229,65.1391143799,0.0,0.0,0.0
1519256873341314025,47720,1519256873341148548,weiss_callib,488,487,488,487,490,480,492,488,481,490,489,489,485,489,484,487,0.802026152611,0.260869562626,66.7757797241,0.0,0.0,0.0
1519256873421268157,47721,1519256873421155586,weiss_callib,489,487,488,487,489,481,492,488,481,490,489,490,485,489,484,487,1.05529761314,0.217391297221,77.0867462158,0.0,0.0,0.0
1519256873541370410,47722,1519256873541186832,weiss_callib,488,487,488,487,489,480,491,488,481,490,489,490,485,488,485,487,1.30856907368,0.202898547053,90.8346939087,0.0,0.0,0.0
1519256873661359706,47723,1519256873661175790,weiss_callib,488,487,487,487,489,480,492,488,481,489,489,490,485,489,484,487,1.66033482552,0.46376812458,92.14402771,0.0,0.0,0.0
1519256873741495220,47724,1519256873741220809,weiss_callib,488,487,488,487,489,480,492,488,481,490,488,490,486,489,484,487,1.68847620487,0.565217375755,89.3617019653,0.0,0.0,0.0
1519256873861409378,47725,1519256873861147626,weiss_callib,488,487,488,487,489,481,492,489,481,490,488,490,485,488,484,487,2.05431270599,0.913043498993,95.0900192261,0.0,0.0,0.0
1519256873983138515,47726,1519256873981195735,weiss_callib,488,487,487,488,489,480,491,488,481,489,487,489,484,489,485,487,1.98395943642,0.0869565233588,95.5810165405,0.0,0.0,0.0
1519256874061293366,47727,1519256874061148896,weiss_callib,488,487,487,487,490,481,492,488,481,489,486,490,485,488,485,487,2.05431270599,0.333333343267,105.891983032,0.0,0.0,0.0
1519256874181304687,47728,1519256874181180180,weiss_callib,488,487,488,487,489,480,492,488,481,489,487,489,485,489,484,487,2.77191495895,0.579710125923,123.240592957,0.0,0.0,0.0
1519256874261395085,47729,1519256874261196424,weiss_callib,488,488,487,487,490,480,492,488,481,490,486,490,485,488,485,487,2.8000562191,0.304347813129,121.440261841,0.0,0.0,0.0
1519256874381806014,47730,1519256874381181949,weiss_callib,488,487,488,488,489,480,493,488,481,490,485,490,485,488,485,487,2.65934991837,0.478260874748,115.384613037,0.0,0.0,0.0
1519256874501425935,47731,1519256874501162421,weiss_callib,488,487,488,487,489,480,492,489,481,490,485,490,485,489,484,487,2.89855074883,0.637681186199,120.130935669,0.0,0.0,0.0
1519256874581482977,47732,1519256874581218547,weiss_callib,487,488,487,487,490,481,492,487,481,491,484,490,485,489,485,487,2.71563243866,0.811594188213,127.495910645,0.0,0.0,0.0
1519256874701473030,47733,1519256874701176536,weiss_callib,488,487,488,487,489,480,492,488,481,489,484,490,485,488,485,487,3.30659914017,0.956521749496,143.862518311,0.0,0.0,0.0
1519256874821375284,47734,1519256874821163738,weiss_callib,488,488,487,486,489,480,492,488,481,490,483,490,486,489,484,487,3.33474040031,0.942028999329,142.225860596,0.0,0.0,0.0
1519256874901708942,47735,1519256874901161707,weiss_callib,488,488,487,488,490,481,493,489,482,491,483,490,485,489,484,487,3.09553956985,1.24637675285,130.27822876,0.0,0.0,0.0
1519256875021962701,47736,1519256875021159377,weiss_callib,487,487,488,487,489,480,493,488,481,490,482,490,485,489,485,486,3.84128332138,1.46376812458,153.682495117,0.0,0.0,0.0
1519256875141238401,47737,1519256875141149507,weiss_callib,488,487,487,487,489,480,492,488,481,490,481,490,485,489,485,487,3.30659914017,0.869565188885,149.263504028,0.0,0.0,0.0
1519256875221360589,47738,1519256875221172643,weiss_callib,488,487,488,487,489,481,491,488,481,491,481,490,485,489,485,487,3.13775157928,1.02898550034,136.006546021,0.0,0.0,0.0
1519256875341361231,47739,1519256875341159547,weiss_callib,488,488,487,487,489,480,492,488,481,490,481,490,485,489,485,487,3.67243552208,1.28985512257,163.338790894,0.0,0.0,0.0
1519256875421397127,47740,1519256875421186811,weiss_callib,489,487,487,487,489,480,492,488,481,490,480,490,484,488,485,487,4.10862541199,1.40579712391,178.723403931,0.0,0.0,0.0
1519256875541674318,47741,1519256875541161080,weiss_callib,487,487,488,487,490,480,492,489,481,491,479,490,486,488,485,487,3.61615300179,1.49275362492,149.263504028,0.0,0.0,0.0
1519256875661388887,47742,1519256875661190060,weiss_callib,487,487,487,487,489,480,492,489,481,490,478,490,485,488,485,487,4.33375549316,1.59420287609,175.613754272,0.0,0.0,0.0
1519256875741572059,47743,1519256875741195040,weiss_callib,488,488,488,487,490,480,491,488,481,490,476,490,485,489,485,487,4.01013088226,1.3188406229,160.883804321,0.0,0.0,0.0
1519256875861322913,47744,1519256875861176041,weiss_callib,488,487,487,487,489,480,492,488,481,490,475,490,485,489,485,487,4.26340246201,1.59420287609,161.538467407,0.0,0.0,0.0
1519256875981239056,47745,1519256875981152560,weiss_callib,488,487,488,487,489,481,492,488,481,490,475,490,485,489,485,487,3.79907131195,1.44927537441,151.391159058,0.0,0.0,0.0
1519256876061363244,47746,1519256876061179969,weiss_callib,488,488,488,488,490,481,492,489,482,490,474,490,485,488,485,487,4.03827190399,1.3188406229,167.103103638,0.0,0.0,0.0
1519256876181371715,47747,1519256876181160431,weiss_callib,488,488,487,487,489,480,492,489,481,490,474,491,484,489,486,487,4.37596750259,1.40579712391,179.214401245,0.0,0.0,0.0
1519256876301354021,47748,1519256876301184463,weiss_callib,487,487,488,487,489,480,492,489,481,490,473,490,485,490,484,487,4.79808616638,1.20289850235,179.050735474,0.0,0.0,0.0
1519256876381466463,47749,1519256876381209645,weiss_callib,488,488,488,487,489,480,492,488,481,490,471,490,485,489,485,487,4.84029817581,1.73913037777,173.158752441,0.0,0.0,0.0
1519256876501336874,47750,1519256876501177683,weiss_callib,488,487,488,487,489,480,493,489,481,491,471,490,485,490,486,487,5.40312385559,1.60869562626,192.471359253,0.0,0.0,0.0
1519256876581444731,47751,1519256876581187957,weiss_callib,488,487,488,487,489,481,493,488,481,490,469,490,485,489,485,487,5.13578176498,1.56521737576,190.016372681,0.0,0.0,0.0
1519256876701563949,47752,1519256876701209783,weiss_callib,488,488,488,487,489,480,492,488,481,490,470,490,485,489,485,487,5.55790042877,1.50724637508,205.400985718,0.0,0.0,0.0
1519256876821450494,47753,1519256876821176607,weiss_callib,488,488,488,488,489,481,493,488,481,490,467,490,486,489,485,487,4.74180364609,1.17391300201,172.176757812,0.0,0.0,0.0
1519256876901390510,47754,1519256876901182073,weiss_callib,488,487,488,487,489,480,493,488,481,490,466,490,485,489,485,487,5.16392278671,0.869565188885,196.72668457,0.0,0.0,0.0
1519256877021304671,47755,1519256877021175797,weiss_callib,488,487,487,487,490,480,493,488,482,490,466,490,485,489,485,487,5.6563949585,1.07246375084,215.220947266,0.0,0.0,0.0
1519256877141332560,47756,1519256877141165294,weiss_callib,488,487,488,487,489,480,493,488,481,491,464,490,486,489,485,487,5.43126487732,1.37681162357,203.436981201,0.0,0.0,0.0
1519256877221281930,47757,1519256877221170629,weiss_callib,488,487,487,487,489,481,493,488,481,491,462,490,485,490,485,488,5.20613479614,1.33333337307,189.689041138,0.0,0.0,0.0
1519256877341310648,47758,1519256877341155117,weiss_callib,488,488,487,487,490,480,493,488,482,490,462,490,485,489,485,487,5.45940637589,1.37681162357,206.219314575,0.0,0.0,0.0
1519256877461399571,47759,1519256877461188742,weiss_callib,488,488,487,488,489,480,493,488,482,490,461,490,485,489,485,487,5.6001124382,1.47826087475,201.472991943,0.0,0.0,0.0
1519256877541358557,47760,1519256877541173178,weiss_callib,488,487,488,487,489,481,493,488,481,491,459,490,485,488,485,487,5.74081897736,1.46376812458,213.256958008,0.0,0.0,0.0
1519256877661299838,47761,1519256877661159198,weiss_callib,488,488,488,487,489,481,493,488,481,491,460,491,485,488,485,487,6.69762229919,1.39130437374,226.022918701,0.0,0.0,0.0
1519256877741389461,47762,1519256877741178949,weiss_callib,488,487,488,488,489,481,493,488,481,491,457,490,485,489,485,488,7.11974096298,1.47826087475,242.389526367,0.0,0.0,0.0
1519256877861357784,47763,1519256877861176462,weiss_callib,488,488,488,488,490,481,493,489,482,491,455,490,485,489,485,487,6.20514965057,1.60869562626,202.127655029,0.0,0.0,0.0
1519256877981573958,47764,1519256877981192954,weiss_callib,488,487,488,487,490,480,492,488,481,491,453,491,485,489,485,487,6.51470375061,1.79710149765,227.332244873,0.0,0.0,0.0
1519256878061267986,47765,1519256878061159115,weiss_callib,488,487,487,487,489,481,493,489,481,490,452,490,485,490,485,487,6.92275238037,1.73913037777,246.644851685,0.0,0.0,0.0
1519256878181361662,47766,1519256878181202031,weiss_callib,488,488,488,487,489,480,493,488,481,491,449,490,485,489,485,487,7.14788246155,1.63768112659,238.625198364,0.0,0.0,0.0
1519256878301255550,47767,1519256878301158657,weiss_callib,489,488,487,487,489,480,493,489,481,490,449,491,485,489,485,487,7.274518013,1.78260874748,237.152206421,0.0,0.0,0.0
1519256878381880345,47768,1519256878381647454,weiss_callib,488,488,488,487,489,480,493,488,482,491,447,491,486,490,485,488,7.62628412247,1.81159424782,254.500823975,0.0,0.0,0.0
1519256878501389425,47769,1519256878501186751,weiss_callib,487,487,487,487,489,481,493,488,481,491,445,490,485,489,485,488,7.82327270508,1.63768112659,251.063827515,0.0,0.0,0.0
1519256878581402499,47770,1519256878581188802,weiss_callib,488,487,488,487,489,480,493,488,481,491,440,491,485,489,486,487,7.38708305359,1.60869562626,236.006546021,0.0,0.0,0.0
1519256878701403174,47771,1519256878701196271,weiss_callib,488,487,488,487,489,480,493,488,482,491,440,490,485,489,485,488,7.71070766449,1.43478262424,255.810150146,0.0,0.0,0.0
1519256878821354403,47772,1519256878821177245,weiss_callib,489,488,487,487,489,481,493,488,481,491,437,490,484,489,485,487,7.54186010361,1.63768112659,249.263504028,0.0,0.0,0.0
1519256878901267082,47773,1519256878901134820,weiss_callib,488,488,488,488,490,480,493,489,481,490,436,490,485,489,486,487,7.31673002243,2.02898550034,244.353515625,0.0,0.0,0.0
1519256879021523668,47774,1519256879021160555,weiss_callib,488,488,488,487,489,480,493,489,481,491,431,490,485,489,485,487,8.02026176453,2.11594200134,264.157104492,0.0,0.0,0.0
1519256879141262545,47775,1519256879141152424,weiss_callib,487,488,487,487,489,480,492,489,481,491,427,491,485,489,485,487,7.49964809418,1.98550724983,258.42880249,0.0,0.0,0.0
1519256879221352091,47776,1519256879221189232,weiss_callib,488,488,488,487,489,480,493,489,481,491,427,491,485,489,485,487,8.04840278625,1.81159424782,280.523742676,0.0,0.0,0.0
1519256879341249891,47777,1519256879341146191,weiss_callib,488,488,488,487,489,481,492,489,481,491,423,491,485,488,486,487,8.09061527252,1.9565217495,277.577728271,0.0,0.0,0.0
1519256879461323342,47778,1519256879461146485,weiss_callib,488,488,488,487,490,481,494,489,481,491,418,491,485,489,486,487,8.03433227539,2.07246375084,267.594116211,0.0,0.0,0.0
1519256879541416273,47779,1519256879541193337,weiss_callib,487,487,488,488,490,480,493,488,482,492,413,491,485,489,486,488,7.75291967392,1.75362324715,258.592468262,0.0,0.0,0.0
1519256879661260411,47780,1519256879661149876,weiss_callib,488,488,488,487,489,481,493,488,482,491,413,491,485,489,486,487,7.99212026596,1.40579712391,272.667755127,0.0,0.0,0.0
1519256879781366947,47781,1519256879781159058,weiss_callib,489,488,488,487,489,480,493,488,481,491,408,491,485,489,485,487,8.2876033783,1.6811593771,280.360076904,0.0,0.0,0.0
1519256879861614190,47782,1519256879861205003,weiss_callib,487,487,487,487,490,480,493,488,482,491,403,490,485,489,486,487,8.14689731598,1.55072462559,270.049102783,0.0,0.0,0.0
1519256879981599160,47783,1519256879981219189,weiss_callib,488,488,488,487,489,480,493,488,481,491,402,491,485,489,486,487,8.18910980225,1.63768112659,273.649749756,0.0,0.0,0.0
1519256880061523746,47784,1519256880061187653,weiss_callib,487,488,487,487,489,480,493,489,482,492,402,491,484,489,485,487,8.14689731598,1.57971012592,273.322418213,0.0,0.0,0.0
1519256880181592606,47785,1519256880181220484,weiss_callib,487,488,488,488,489,481,493,488,481,491,402,491,485,490,486,488,8.13282680511,1.56521737576,274.631744385,0.0,0.0,0.0
1519256880301601446,47786,1519256880301203519,weiss_callib,487,487,487,487,489,480,493,488,481,491,402,491,486,489,486,487,8.09061527252,1.46376812458,274.468078613,0.0,0.0,0.0
1519256880381529187,47787,1519256880381238248,weiss_callib,488,488,488,488,489,480,493,488,481,492,403,491,486,489,486,487,8.10468578339,1.46376812458,274.468078613,0.0,0.0,0.0
1519256880501509220,47788,1519256880501204707,weiss_callib,488,487,489,487,489,481,493,488,481,491,402,491,484,490,486,487,8.04840278625,1.47826087475,274.631744385,0.0,0.0,0.0
1519256880621518441,47789,1519256880621204141,weiss_callib,488,487,488,487,490,480,492,489,481,491,402,491,485,490,486,487,8.06247329712,1.46376812458,274.304412842,0.0,0.0,0.0
1519256880701512815,47790,1519256880701209853,weiss_callib,488,487,487,487,489,480,493,488,481,491,402,491,485,489,485,487,8.04840278625,1.52173912525,274.304412842,0.0,0.0,0.0
1519256880821496212,47791,1519256880821230760,weiss_callib,487,487,488,487,489,480,494,488,482,491,402,491,485,489,485,487,8.03433227539,1.42028987408,274.14074707,0.0,0.0,0.0
1519256880941459738,47792,1519256880941201011,weiss_callib,488,488,489,488,489,481,493,488,481,492,402,491,485,489,485,487,8.03433227539,1.53623187542,274.14074707,0.0,0.0,0.0
1519256881021589543,47793,1519256881021228306,weiss_callib,489,488,487,487,489,481,493,488,481,491,403,490,485,489,485,487,8.02026176453,1.62318837643,274.304412842,0.0,0.0,0.0
1519256881141433656,47794,1519256881141178858,weiss_callib,488,487,487,487,490,481,494,490,482,492,402,491,485,489,486,487,8.00619125366,1.60869562626,274.304412842,0.0,0.0,0.0
1519256881261540049,47795,1519256881261246207,weiss_callib,487,488,488,487,489,480,494,488,482,491,402,491,485,489,485,488,7.99212026596,1.65217387676,273.813415527,0.0,0.0,0.0
1519256881341623849,47796,1519256881341250047,weiss_callib,488,487,488,487,489,481,493,488,481,491,402,491,485,489,486,487,7.94990873337,1.57971012592,273.813415527,0.0,0.0,0.0
1519256881461443205,47797,1519256881461196609,weiss_callib,488,487,488,487,489,480,494,489,481,491,402,490,486,489,486,487,7.9780497551,1.57971012592,273.813415527,0.0,0.0,0.0
1519256881581500844,47798,1519256881581195067,weiss_callib,487,487,488,488,489,480,493,488,481,492,402,491,485,489,486,487,7.9780497551,1.65217387676,273.649749756,0.0,0.0,0.0
1519256881661537356,47799,1519256881661196315,weiss_callib,488,487,488,487,489,480,493,489,481,491,402,491,486,490,486,487,7.96397924423,1.65217387676,273.649749756,0.0,0.0,0.0
1519256881781530054,47800,1519256881781205957,weiss_callib,488,487,487,488,489,481,494,488,481,492,402,491,485,489,486,487,7.99212026596,1.76811599731,273.813415527,0.0,0.0,0.0
1519256881861444014,47801,1519256881861215840,weiss_callib,488,487,488,487,489,480,493,488,481,491,402,491,485,490,486,488,7.96397924423,1.6811593771,273.649749756,0.0,0.0,0.0
1519256881981502427,47802,1519256881981168788,weiss_callib,488,488,488,487,489,480,493,489,481,491,403,491,485,489,486,487,7.9780497551,1.75362324715,273.649749756,0.0,0.0,0.0
1519256882101274419,47803,1519256882101165743,weiss_callib,488,487,488,487,489,480,493,488,481,491,402,491,485,489,486,487,7.96397924423,1.6811593771,273.649749756,0.0,0.0,0.0
1519256882181559745,47804,1519256882181202477,weiss_callib,488,487,488,488,490,480,493,488,481,491,402,491,485,489,486,487,8.02026176453,1.79710149765,273.977081299,0.0,0.0,0.0
1519256882301409659,47805,1519256882301172608,weiss_callib,488,487,488,487,489,480,493,489,482,491,403,491,486,489,486,488,8.03433227539,1.79710149765,273.977081299,0.0,0.0,0.0
1519256882421607209,47806,1519256882421202652,weiss_callib,488,488,488,487,489,481,493,489,481,492,402,490,485,489,486,487,7.9780497551,1.6811593771,273.977081299,0.0,0.0,0.0
1519256882501630259,47807,1519256882501231395,weiss_callib,488,489,488,488,489,481,494,489,481,491,402,491,485,489,486,487,7.9780497551,1.76811599731,273.977081299,0.0,0.0,0.0
1519256882621297243,47808,1519256882621172967,weiss_callib,489,488,487,487,489,481,493,489,482,492,403,492,485,489,485,488,7.9780497551,1.71014487743,273.649749756,0.0,0.0,0.0
1519256882741532694,47809,1519256882741237037,weiss_callib,488,487,487,487,489,480,493,489,481,491,403,491,485,489,486,487,8.02026176453,1.73913037777,273.977081299,0.0,0.0,0.0
1519256882821611472,47810,1519256882821219368,weiss_callib,488,488,487,487,490,480,494,488,481,491,402,491,485,489,486,487,7.94990873337,1.65217387676,273.813415527,0.0,0.0,0.0
