%time,field.header.seq,field.header.stamp,field.header.frame_id,field.adc0,field.adc1,field.adc2,field.adc3,field.adc4,field.adc5,field.adc6,field.adc7,field.adc8,field.adc9,field.adc10,field.adc11,field.adc12,field.adc13,field.adc14,field.adc15,field.nano.force.x,field.nano.force.y,field.nano.force.z,field.nano.torque.x,field.nano.torque.y,field.nano.torque.z
1519255412021391994,33864,1519255412021168045,weiss_callib,487,488,487,486,489,480,491,487,480,489,489,487,484,489,484,486,2.02617144585,-0.420289844275,105.237312317,0.0,0.0,0.0
1519255412141709737,33865,1519255412141210206,weiss_callib,487,487,487,486,488,480,491,487,481,489,489,487,484,488,484,486,2.01210069656,-0.376811593771,104.746315002,0.0,0.0,0.0
1519255412221511960,33866,1519255412221215787,weiss_callib,487,487,488,486,488,479,491,487,481,489,489,487,484,488,484,486,2.02617144585,-0.333333343267,104.909980774,0.0,0.0,0.0
1519255412341733410,33867,1519255412341231950,weiss_callib,487,487,488,487,489,480,492,488,481,490,489,486,484,489,485,487,2.02617144585,-0.333333343267,104.909980774,0.0,0.0,0.0
1519255412461649302,33868,1519255412461259374,weiss_callib,487,487,487,486,488,479,491,488,480,489,488,487,485,488,484,487,1.99803006649,-0.405797094107,105.237312317,0.0,0.0,0.0
1519255412541440161,33869,1519255412541215764,weiss_callib,487,487,487,487,490,481,492,487,480,489,488,487,485,488,484,486,1.98395943642,-0.449275374413,105.073646545,0.0,0.0,0.0
1519255412661437456,33870,1519255412661215797,weiss_callib,487,487,488,486,489,480,491,487,480,489,489,487,484,487,484,487,1.96988880634,-0.478260874748,105.073646545,0.0,0.0,0.0
1519255412781729623,33871,1519255412781261830,weiss_callib,488,487,487,487,489,480,492,488,482,490,489,487,485,488,485,487,1.95581817627,-0.492753624916,105.237312317,0.0,0.0,0.0
1519255412861576371,33872,1519255412861228675,weiss_callib,487,487,487,487,489,480,491,488,481,489,489,488,485,489,485,487,1.96988880634,-0.478260874748,105.237312317,0.0,0.0,0.0
1519255412981722944,33873,1519255412981263730,weiss_callib,487,487,487,486,489,480,491,488,481,490,489,487,485,488,483,486,1.98395943642,-0.449275374413,105.400985718,0.0,0.0,0.0
1519255413061606482,33874,1519255413061243490,weiss_callib,488,486,487,486,488,480,491,487,480,489,488,486,484,488,484,486,2.01210069656,-0.478260874748,105.073646545,0.0,0.0,0.0
1519255413181454561,33875,1519255413181179298,weiss_callib,487,487,487,486,489,480,491,487,481,489,489,488,484,488,484,487,1.98395943642,-0.405797094107,104.909980774,0.0,0.0,0.0
1519255413301757650,33876,1519255413301265396,weiss_callib,487,487,487,487,488,480,491,488,480,489,489,487,485,487,483,486,2.05431270599,-0.3188405931,104.746315002,0.0,0.0,0.0
1519255413381614712,33877,1519255413381241638,weiss_callib,488,486,487,486,489,479,491,488,481,489,488,488,485,489,484,486,2.01210069656,-0.391304343939,104.746315002,0.0,0.0,0.0
1519255413501584583,33878,1519255413501207168,weiss_callib,488,488,488,487,489,480,490,487,481,489,489,487,484,488,484,486,2.01210069656,-0.405797094107,105.073646545,0.0,0.0,0.0
1519255413621496030,33879,1519255413621176426,weiss_callib,487,488,487,486,488,479,491,487,481,489,488,487,485,488,484,487,1.96988880634,-0.449275374413,105.237312317,0.0,0.0,0.0
1519255413701776211,33880,1519255413701284798,weiss_callib,488,487,487,486,488,479,491,487,481,489,488,487,484,488,484,486,1.95581817627,-0.46376812458,105.237312317,0.0,0.0,0.0
1519255413821749680,33881,1519255413821255922,weiss_callib,487,486,488,486,488,480,491,487,481,489,489,487,485,488,484,487,1.92767691612,-0.449275374413,105.073646545,0.0,0.0,0.0
1519255413941384186,33882,1519255413941195674,weiss_callib,487,487,487,486,488,480,492,487,481,489,489,487,484,488,484,486,1.98395943642,-0.478260874748,105.073646545,0.0,0.0,0.0
1519255414021652923,33883,1519255414021188808,weiss_callib,487,487,487,487,488,479,492,487,480,489,488,487,484,487,484,486,1.99803006649,-0.434782594442,104.909980774,0.0,0.0,0.0
1519255414141557167,33884,1519255414141208559,weiss_callib,487,488,487,487,488,479,492,487,480,489,489,487,484,489,484,486,1.99803006649,-0.449275374413,104.909980774,0.0,0.0,0.0
1519255414221554001,33885,1519255414221247279,weiss_callib,488,487,487,486,489,480,492,488,481,490,489,487,485,488,484,487,1.98395943642,-0.478260874748,105.073646545,0.0,0.0,0.0
1519255414341333445,33886,1519255414341183289,weiss_callib,488,487,487,486,489,479,491,488,481,488,489,487,484,488,484,486,2.02617144585,-0.391304343939,104.909980774,0.0,0.0,0.0
1519255414461424994,33887,1519255414461164433,weiss_callib,487,487,488,486,488,480,491,487,480,489,488,487,484,488,484,486,1.98395943642,-0.376811593771,104.746315002,0.0,0.0,0.0
1519255414541309888,33888,1519255414541171522,weiss_callib,487,487,488,487,488,479,491,487,480,489,489,487,484,488,483,486,1.98395943642,-0.391304343939,104.746315002,0.0,0.0,0.0
1519255414661517016,33889,1519255414661196049,weiss_callib,488,487,487,486,488,479,491,487,481,489,489,487,484,488,484,486,2.01210069656,-0.391304343939,104.909980774,0.0,0.0,0.0
1519255414781672676,33890,1519255414781215277,weiss_callib,487,487,488,486,488,480,492,487,480,489,489,487,484,487,484,487,1.99803006649,-0.434782594442,105.237312317,0.0,0.0,0.0
1519255414861796759,33891,1519255414861218125,weiss_callib,488,488,488,487,489,479,491,487,480,489,488,487,485,488,484,486,1.95581817627,-0.434782594442,105.237312317,0.0,0.0,0.0
1519255414981747515,33892,1519255414981262798,weiss_callib,488,486,487,486,488,480,491,487,480,490,488,487,485,488,484,486,1.95581817627,-0.478260874748,104.909980774,0.0,0.0,0.0
1519255415101730215,33893,1519255415101264211,weiss_callib,488,487,487,486,488,480,492,487,481,490,489,487,484,488,484,486,1.96988880634,-0.449275374413,104.909980774,0.0,0.0,0.0
1519255415181749536,33894,1519255415181259973,weiss_callib,488,487,488,487,488,480,491,487,480,489,488,486,484,488,484,486,1.98395943642,-0.449275374413,104.746315002,0.0,0.0,0.0
1519255415301745176,33895,1519255415301261602,weiss_callib,488,486,487,486,489,480,491,488,481,489,490,487,484,488,484,486,2.01210069656,-0.376811593771,104.909980774,0.0,0.0,0.0
1519255415381766412,33896,1519255415381292103,weiss_callib,487,487,487,487,489,480,492,488,481,489,488,486,484,488,484,487,2.02617144585,-0.434782594442,105.073646545,0.0,0.0,0.0
1519255415501739414,33897,1519255415501262069,weiss_callib,487,487,487,486,488,480,490,488,480,489,489,487,484,488,484,486,1.98395943642,-0.362318843603,105.073646545,0.0,0.0,0.0
1519255415621756914,33898,1519255415621263988,weiss_callib,487,487,487,486,488,480,491,487,481,490,489,487,484,488,484,486,1.99803006649,-0.405797094107,105.073646545,0.0,0.0,0.0
1519255415701697098,33899,1519255415701218826,weiss_callib,487,486,487,486,489,480,492,488,480,490,489,487,484,488,484,486,2.05431270599,-0.362318843603,104.909980774,0.0,0.0,0.0
1519255415821692051,33900,1519255415821259747,weiss_callib,487,487,488,487,489,480,491,488,481,489,489,487,485,489,485,486,1.99803006649,-0.434782594442,105.237312317,0.0,0.0,0.0
1519255415941571473,33901,1519255415941214430,weiss_callib,488,486,487,486,488,479,491,488,480,488,490,487,484,489,484,486,1.95581817627,-0.449275374413,105.237312317,0.0,0.0,0.0
1519255416021557634,33902,1519255416021236668,weiss_callib,487,488,487,487,489,480,491,487,481,489,489,487,485,488,484,486,1.99803006649,-0.362318843603,105.073646545,0.0,0.0,0.0
1519255416141552301,33903,1519255416141216632,weiss_callib,487,487,487,486,488,479,491,487,480,488,489,487,484,488,484,486,1.91360628605,-0.478260874748,105.073646545,0.0,0.0,0.0
1519255416221636171,33904,1519255416221276055,weiss_callib,487,487,487,486,488,479,491,487,481,489,488,487,484,488,484,487,1.9417475462,-0.46376812458,105.073646545,0.0,0.0,0.0
1519255416341491546,33905,1519255416341210139,weiss_callib,487,487,487,486,489,479,492,487,480,489,489,487,484,488,483,487,1.99803006649,-0.46376812458,105.073646545,0.0,0.0,0.0
1519255416461473771,33906,1519255416461206866,weiss_callib,487,487,488,487,488,480,491,488,480,489,488,487,485,488,484,486,1.9417475462,-0.405797094107,104.909980774,0.0,0.0,0.0
1519255416541438443,33907,1519255416541212549,weiss_callib,488,487,487,486,488,479,491,487,481,489,489,488,484,488,484,487,1.95581817627,-0.478260874748,105.073646545,0.0,0.0,0.0
1519255416661583220,33908,1519255416661205519,weiss_callib,487,486,487,486,489,479,491,487,480,489,488,487,484,488,485,487,1.98395943642,-0.420289844275,104.909980774,0.0,0.0,0.0
1519255416781591293,33909,1519255416781204542,weiss_callib,487,488,487,487,488,479,491,488,481,489,488,486,485,488,484,486,1.96988880634,-0.420289844275,104.746315002,0.0,0.0,0.0
1519255416861469163,33910,1519255416861189334,weiss_callib,487,487,488,487,488,480,492,487,480,489,489,487,484,488,484,486,1.96988880634,-0.362318843603,104.746315002,0.0,0.0,0.0
1519255416981463396,33911,1519255416981179111,weiss_callib,487,486,487,486,489,480,491,487,480,489,488,487,484,488,484,486,2.01210069656,-0.391304343939,105.073646545,0.0,0.0,0.0
1519255417101821595,33912,1519255417101214601,weiss_callib,488,487,487,486,489,480,491,487,480,489,489,487,484,488,484,486,1.99803006649,-0.362318843603,104.909980774,0.0,0.0,0.0
1519255417181617025,33913,1519255417181221654,weiss_callib,488,488,488,486,488,480,491,488,481,490,489,487,484,488,484,487,1.98395943642,-0.391304343939,105.237312317,0.0,0.0,0.0
1519255417301611026,33914,1519255417301288727,weiss_callib,487,486,487,486,488,480,491,487,481,489,488,487,484,488,484,487,1.92767691612,-0.46376812458,105.073646545,0.0,0.0,0.0
1519255417381779446,33915,1519255417381294684,weiss_callib,487,487,487,486,488,480,491,487,480,490,489,487,484,488,484,486,1.95581817627,-0.405797094107,105.073646545,0.0,0.0,0.0
1519255417501609433,33916,1519255417501203925,weiss_callib,487,487,488,486,488,480,491,487,481,489,488,487,484,488,484,486,1.95581817627,-0.449275374413,104.909980774,0.0,0.0,0.0
1519255417621747036,33917,1519255417621263652,weiss_callib,488,487,487,487,488,480,491,488,480,489,489,487,485,488,484,487,1.98395943642,-0.391304343939,105.073646545,0.0,0.0,0.0
1519255417701754485,33918,1519255417701289804,weiss_callib,487,487,487,486,489,480,491,488,480,489,489,487,485,488,484,487,1.96988880634,-0.420289844275,104.909980774,0.0,0.0,0.0
1519255417821617143,33919,1519255417821227878,weiss_callib,487,487,487,486,488,479,492,488,480,489,488,487,484,488,484,486,2.01210069656,-0.347826093435,104.746315002,0.0,0.0,0.0
1519255417941874035,33920,1519255417941244371,weiss_callib,487,487,487,486,489,480,491,487,481,489,488,487,484,488,484,486,1.99803006649,-0.333333343267,104.746315002,0.0,0.0,0.0
1519255418021678559,33921,1519255418021170270,weiss_callib,487,487,487,486,489,480,491,488,481,489,489,487,485,488,484,486,2.16687774658,-0.478260874748,108.674301147,0.0,0.0,0.0
1519255418141380412,33922,1519255418141167158,weiss_callib,488,488,488,487,489,480,492,488,481,489,489,487,484,488,484,487,2.29351353645,-0.565217375755,103.927986145,0.0,0.0,0.0
1519255418261291199,33923,1519255418261205061,weiss_callib,487,487,487,486,488,479,491,487,481,490,489,487,484,488,484,487,2.16687774658,-0.521739125252,108.346969604,0.0,0.0,0.0
1519255418341401535,33924,1519255418341170823,weiss_callib,488,487,487,487,488,480,491,487,480,489,488,485,484,488,484,486,2.3216547966,-0.46376812458,115.548278809,0.0,0.0,0.0
1519255418461318824,33925,1519255418461147271,weiss_callib,487,487,487,487,488,479,491,487,480,489,488,485,485,488,483,486,2.60306739807,-0.724637687206,114.238952637,0.0,0.0,0.0
1519255418582914743,33926,1519255418581176063,weiss_callib,487,487,487,486,488,479,491,488,480,489,489,484,484,488,484,486,2.91262125969,-0.855072438717,116.85761261,0.0,0.0,0.0
1519255418661452069,33927,1519255418661165141,weiss_callib,487,487,487,486,489,480,491,487,480,489,488,484,484,488,484,487,2.36386656761,-0.579710125923,120.29460144,0.0,0.0,0.0
1519255418781800722,33928,1519255418781173179,weiss_callib,487,487,487,486,488,480,492,488,481,489,489,484,484,488,484,486,2.4764316082,-0.652173936367,121.767593384,0.0,0.0,0.0
1519255418862648535,33929,1519255418861971805,weiss_callib,487,487,487,486,488,479,491,488,481,489,489,483,484,488,484,486,2.8000562191,-0.710144937038,130.932891846,0.0,0.0,0.0
1519255418981313449,33930,1519255418981197485,weiss_callib,487,487,487,486,489,480,491,487,480,489,489,482,484,488,484,486,2.78598570824,-0.550724625587,125.695579529,0.0,0.0,0.0
1519255419101312500,33931,1519255419101163781,weiss_callib,487,487,487,487,489,479,491,488,480,489,489,481,484,488,484,486,2.94076251984,-0.666666686535,129.787231445,0.0,0.0,0.0
1519255419181582252,33932,1519255419181179041,weiss_callib,488,488,488,487,489,480,491,488,481,490,490,481,485,489,484,487,2.77191495895,-0.565217375755,132.569564819,0.0,0.0,0.0
1519255419301363744,33933,1519255419301174697,weiss_callib,487,487,487,486,488,480,491,488,480,489,489,480,484,488,484,486,2.71563243866,-0.434782594442,137.970535278,0.0,0.0,0.0
1519255419422217216,33934,1519255419421170598,weiss_callib,488,487,488,486,489,480,492,488,480,489,489,480,484,489,484,486,3.09553956985,-0.739130437374,138.625198364,0.0,0.0,0.0
1519255419501378066,33935,1519255419501201468,weiss_callib,487,487,487,487,489,480,492,488,481,490,490,479,485,489,485,487,3.4473054409,-0.666666686535,148.281509399,0.0,0.0,0.0
1519255419622126596,33936,1519255419621641561,weiss_callib,487,487,487,486,489,479,491,488,480,489,489,479,484,488,484,487,2.98297452927,-0.492753624916,140.589202881,0.0,0.0,0.0
1519255419701306780,33937,1519255419701205882,weiss_callib,488,487,487,487,489,480,491,488,480,489,489,477,484,489,485,487,3.20810461044,-0.53623187542,145.335510254,0.0,0.0,0.0
1519255419821375374,33938,1519255419821161177,weiss_callib,487,487,487,486,488,481,491,488,481,489,488,477,484,488,484,487,3.12368083,-0.521739125252,151.882156372,0.0,0.0,0.0
1519255419941626787,33939,1519255419941303218,weiss_callib,487,487,487,486,489,480,492,488,481,489,489,475,485,488,484,487,3.29252839088,-0.507246375084,148.772506714,0.0,0.0,0.0
1519255420021694601,33940,1519255420021227123,weiss_callib,488,487,487,486,489,480,491,488,481,489,489,475,484,488,485,487,3.63022375107,-0.724637687206,157.119476318,0.0,0.0,0.0
1519255420142551483,33941,1519255420141344917,weiss_callib,488,487,487,487,489,480,491,488,480,489,490,474,484,488,484,487,3.36288166046,-0.565217375755,156.301147461,0.0,0.0,0.0
1519255420261936504,33942,1519255420261231074,weiss_callib,487,487,487,487,489,480,491,488,481,489,489,473,484,488,484,487,3.55987048149,-0.608695626259,156.628479004,0.0,0.0,0.0
1519255420341809788,33943,1519255420341181584,weiss_callib,487,487,487,486,488,480,491,488,480,489,489,472,485,488,484,486,3.70057678223,-0.652173936367,167.266769409,0.0,0.0,0.0
1519255420461407990,33944,1519255420461176325,weiss_callib,488,487,487,487,488,479,492,488,480,489,489,471,484,488,484,487,3.65836501122,-0.550724625587,164.157119751,0.0,0.0,0.0
1519255420581282894,33945,1519255420581153277,weiss_callib,488,487,487,486,489,480,491,488,481,489,489,471,484,488,484,487,4.12269592285,-0.666666686535,167.757766724,0.0,0.0,0.0
1519255420662553760,33946,1519255420661383982,weiss_callib,487,487,487,487,489,480,491,488,480,489,489,469,484,488,484,487,4.15083742142,-0.565217375755,175.613754272,0.0,0.0,0.0
1519255420781953759,33947,1519255420781167086,weiss_callib,487,487,487,487,488,480,491,488,480,490,489,468,484,487,484,487,4.33375549316,-0.579710125923,173.813415527,0.0,0.0,0.0
1519255420901397831,33948,1519255420901171122,weiss_callib,487,487,487,486,488,480,491,488,481,489,489,468,484,488,484,487,4.22119045258,-0.608695626259,176.595748901,0.0,0.0,0.0
1519255420981374388,33949,1519255420981148792,weiss_callib,487,487,487,486,488,479,491,488,480,489,489,466,484,488,484,487,3.95384836197,-0.405797094107,178.559738159,0.0,0.0,0.0
1519255421101430801,33950,1519255421101178041,weiss_callib,488,487,487,487,489,480,491,488,481,489,489,466,484,488,484,487,4.74180364609,-0.76811593771,183.633392334,0.0,0.0,0.0
1519255421181354443,33951,1519255421181190770,weiss_callib,487,487,487,487,489,480,492,489,481,490,489,464,485,488,484,487,4.75587463379,-0.681159436703,192.635025024,0.0,0.0,0.0
1519255421301400294,33952,1519255421301172689,weiss_callib,487,488,488,487,489,480,491,488,481,489,489,462,484,489,484,487,4.78401565552,-0.76811593771,189.689041138,0.0,0.0,0.0
1519255421421245353,33953,1519255421421140817,weiss_callib,488,488,488,487,488,480,492,489,481,489,490,462,485,487,485,487,4.9669342041,-0.927536249161,188.870697021,0.0,0.0,0.0
1519255421501373246,33954,1519255421501167279,weiss_callib,488,487,487,486,489,480,491,488,481,489,489,459,484,488,485,488,4.88251018524,-0.840579688549,197.708679199,0.0,0.0,0.0
1519255421621853266,33955,1519255421621163240,weiss_callib,488,487,487,487,489,480,492,488,481,490,490,460,485,488,485,488,5.40312385559,-0.971014499664,194.599014282,0.0,0.0,0.0
1519255421741367252,33956,1519255421741177226,weiss_callib,487,487,487,487,488,480,492,489,481,489,490,457,484,488,484,487,5.78303098679,-0.898550748825,206.219314575,0.0,0.0,0.0
1519255421821607410,33957,1519255421821168887,weiss_callib,487,487,488,487,489,481,492,489,482,490,490,455,485,489,485,488,5.38905286789,-0.724637687206,204.909988403,0.0,0.0,0.0
1519255421941702601,33958,1519255421941170395,weiss_callib,488,487,488,487,489,481,492,488,481,489,489,455,485,488,484,487,5.86745452881,-0.652173936367,204.746322632,0.0,0.0,0.0
1519255422021454444,33959,1519255422021318398,weiss_callib,487,487,488,487,489,480,492,489,481,489,490,452,484,488,484,487,5.68453645706,-0.76811593771,208.837966919,0.0,0.0,0.0
1519255422141487408,33960,1519255422141151014,weiss_callib,488,488,487,487,489,480,492,488,481,489,490,450,485,488,484,488,5.62825393677,-0.652173936367,211.947631836,0.0,0.0,0.0
1519255422261337873,33961,1519255422261154004,weiss_callib,487,487,488,487,489,480,492,489,481,489,490,451,485,488,485,487,5.95187854767,-0.739130437374,211.620300293,0.0,0.0,0.0
1519255422341573775,33962,1519255422341318046,weiss_callib,487,487,488,487,489,480,491,488,481,490,490,447,485,489,485,488,5.9800195694,-0.623188376427,224.713577271,0.0,0.0,0.0
1519255422462295300,33963,1519255422461164642,weiss_callib,488,487,487,487,489,480,492,488,480,490,490,443,484,488,485,487,5.76895999908,-0.913043498993,218.985275269,0.0,0.0,0.0
1519255422581444299,33964,1519255422581172135,weiss_callib,488,487,487,486,489,480,492,488,480,489,490,443,484,489,485,488,6.64133930206,-0.956521749496,236.661209106,0.0,0.0,0.0
1519255422661464800,33965,1519255422661211339,weiss_callib,487,487,488,487,488,480,492,489,481,490,490,439,485,489,484,487,6.58505678177,-0.666666686535,221.767593384,0.0,0.0,0.0
1519255422781325522,33966,1519255422781155410,weiss_callib,487,487,487,487,489,480,492,489,481,490,490,438,485,488,485,488,6.3036441803,-0.507246375084,225.695587158,0.0,0.0,0.0
1519255422901377020,33967,1519255422901166094,weiss_callib,487,487,487,486,489,480,492,489,480,489,490,436,485,488,485,488,6.66948080063,-0.608695626259,232.733230591,0.0,0.0,0.0
1519255422981368290,33968,1519255422981198854,weiss_callib,488,487,488,487,489,480,492,489,482,489,490,432,485,488,484,488,6.75390481949,-0.405797094107,236.988540649,0.0,0.0,0.0
1519255423101959609,33969,1519255423101155230,weiss_callib,488,487,487,487,489,480,492,489,482,490,491,429,485,489,485,488,6.45842123032,-0.565217375755,237.152206421,0.0,0.0,0.0
1519255423181572064,33970,1519255423181170204,weiss_callib,487,487,487,487,489,480,492,489,480,489,489,429,485,488,484,488,6.96496391296,-0.492753624916,252.700485229,0.0,0.0,0.0
1519255423301328527,33971,1519255423301156786,weiss_callib,487,487,487,487,489,480,491,489,480,489,490,424,485,488,484,488,6.83832836151,-0.0434782616794,247.790512085,0.0,0.0,0.0
1519255423421297872,33972,1519255423421152431,weiss_callib,487,487,487,487,489,480,492,489,481,489,491,423,485,488,485,488,7.10567045212,-0.23188406229,248.608840942,0.0,0.0,0.0
1519255423501465385,33973,1519255423501212876,weiss_callib,487,487,487,486,489,480,491,489,481,489,490,420,485,488,484,488,7.35894203186,0.0289855077863,257.446807861,0.0,0.0,0.0
1519255423621595230,33974,1519255423621206895,weiss_callib,487,487,488,487,488,480,491,488,481,490,490,416,484,488,485,488,6.86646986008,-0.0289855077863,239.44354248,0.0,0.0,0.0
1519255423741705289,33975,1519255423741221589,weiss_callib,488,488,488,486,489,480,492,489,481,490,490,415,485,489,485,488,6.90868139267,-0.15942029655,242.71685791,0.0,0.0,0.0
1519255423821580853,33976,1519255423821227830,weiss_callib,487,487,487,487,489,480,491,489,481,489,490,416,484,488,485,488,6.92275238037,-0.15942029655,242.062194824,0.0,0.0,0.0
1519255423941409178,33977,1519255423941199055,weiss_callib,488,487,488,487,489,480,492,489,481,489,490,416,484,488,484,488,6.96496391296,-0.173913046718,244.189849854,0.0,0.0,0.0
1519255424061540004,33978,1519255424061207412,weiss_callib,487,487,488,486,489,480,492,489,481,489,490,416,484,488,485,488,6.9508934021,-0.202898547053,243.207855225,0.0,0.0,0.0
1519255424141582053,33979,1519255424141200899,weiss_callib,487,487,488,486,489,480,492,489,481,489,490,416,484,489,484,488,7.02124643326,-0.173913046718,243.535186768,0.0,0.0,0.0
1519255424261559641,33980,1519255424261213022,weiss_callib,487,487,488,487,489,481,492,489,481,489,490,415,484,488,485,488,6.97903490067,-0.15942029655,244.353515625,0.0,0.0,0.0
1519255424341454864,33981,1519255424341206646,weiss_callib,488,487,488,486,489,480,492,489,481,489,490,416,484,488,485,487,7.00717592239,-0.130434781313,244.353515625,0.0,0.0,0.0
1519255424461583592,33982,1519255424461220451,weiss_callib,487,487,488,487,489,480,492,490,481,489,491,416,485,489,485,488,7.02124643326,-0.173913046718,245.171844482,0.0,0.0,0.0
1519255424581710309,33983,1519255424581231401,weiss_callib,487,488,487,486,490,480,491,488,481,489,490,416,484,488,485,487,7.03531742096,-0.115942031145,245.335510254,0.0,0.0,0.0
1519255424661562134,33984,1519255424661223847,weiss_callib,487,487,487,487,488,480,492,489,481,489,490,416,484,488,484,488,7.04938793182,-0.173913046718,245.335510254,0.0,0.0,0.0
1519255424781765989,33985,1519255424781261241,weiss_callib,488,487,488,486,488,480,492,489,481,489,490,416,485,489,485,487,7.09159994125,-0.101449273527,245.826507568,0.0,0.0,0.0
1519255424901739253,33986,1519255424901258735,weiss_callib,488,487,487,487,489,480,492,489,481,489,490,416,485,489,485,488,7.02124643326,-0.15942029655,245.826507568,0.0,0.0,0.0
1519255424981777492,33987,1519255424981290104,weiss_callib,488,487,487,487,488,480,492,489,480,489,490,416,484,488,484,487,7.07752943039,-0.130434781313,245.826507568,0.0,0.0,0.0
1519255425101562797,33988,1519255425101215975,weiss_callib,488,487,487,487,489,480,492,489,481,489,490,415,484,488,484,488,7.04938793182,-0.202898547053,245.662841797,0.0,0.0,0.0
1519255425221503494,33989,1519255425221215076,weiss_callib,488,487,488,486,489,481,492,488,481,490,490,415,485,488,484,488,7.06345844269,-0.188405796885,245.826507568,0.0,0.0,0.0
1519255425301770683,33990,1519255425301273226,weiss_callib,487,487,487,488,488,481,493,489,481,490,490,416,484,488,484,488,7.03531742096,-0.173913046718,245.99017334,0.0,0.0,0.0
1519255425421671870,33991,1519255425421224434,weiss_callib,488,487,487,486,489,480,492,489,481,489,490,416,485,488,484,489,7.04938793182,-0.188405796885,245.99017334,0.0,0.0,0.0
1519255425501552079,33992,1519255425501229532,weiss_callib,488,487,487,487,489,480,492,489,481,489,490,415,485,489,485,489,7.04938793182,-0.23188406229,245.826507568,0.0,0.0,0.0
1519255425621768253,33993,1519255425621278099,weiss_callib,487,487,487,487,489,480,492,489,481,490,490,416,485,488,484,488,7.06345844269,-0.173913046718,246.317504883,0.0,0.0,0.0
1519255425741509140,33994,1519255425741218147,weiss_callib,488,487,487,487,490,480,493,490,481,490,490,416,484,488,484,488,7.13381195068,-0.130434781313,246.317504883,0.0,0.0,0.0
1519255425821570524,33995,1519255425821226281,weiss_callib,488,487,487,487,489,480,492,489,481,490,490,416,485,489,485,488,7.11974096298,-0.173913046718,246.153839111,0.0,0.0,0.0
1519255425941535822,33996,1519255425941224829,weiss_callib,488,487,487,487,488,480,492,488,481,490,490,415,485,488,484,488,7.07752943039,-0.144927531481,246.644851685,0.0,0.0,0.0
1519255426061319079,33997,1519255426061178986,weiss_callib,487,487,487,487,488,480,491,489,481,489,490,415,484,488,485,488,7.06345844269,-0.217391297221,246.153839111,0.0,0.0,0.0
1519255426141712778,33998,1519255426141230522,weiss_callib,488,487,487,487,489,480,492,489,480,489,490,416,484,488,485,488,7.07752943039,-0.202898547053,246.317504883,0.0,0.0,0.0
1519255426261910329,33999,1519255426261538101,weiss_callib,487,488,487,486,488,480,491,489,481,489,490,416,484,489,484,488,7.06345844269,-0.23188406229,246.317504883,0.0,0.0,0.0
1519255426381501536,34000,1519255426381188074,weiss_callib,488,487,487,487,489,480,492,489,480,489,490,415,485,488,484,488,7.07752943039,-0.260869562626,246.317504883,0.0,0.0,0.0
1519255426461605362,34001,1519255426461239765,weiss_callib,488,487,487,486,488,480,492,489,481,489,490,416,484,489,485,488,7.09159994125,-0.217391297221,246.317504883,0.0,0.0,0.0
1519255426581267608,34002,1519255426581154971,weiss_callib,487,487,487,486,489,480,492,489,481,489,490,416,486,488,484,488,7.04938793182,-0.202898547053,246.317504883,0.0,0.0,0.0
1519255426661582907,34003,1519255426661240618,weiss_callib,488,488,487,487,489,480,492,489,481,490,490,416,485,488,485,488,7.06345844269,-0.246376812458,246.481185913,0.0,0.0,0.0
1519255426781543506,34004,1519255426781178429,weiss_callib,487,487,488,487,489,480,492,490,481,490,490,416,484,489,484,488,7.07752943039,-0.23188406229,246.481185913,0.0,0.0,0.0
