%time,field.header.seq,field.header.stamp,field.header.frame_id,field.adc0,field.adc1,field.adc2,field.adc3,field.adc4,field.adc5,field.adc6,field.adc7,field.adc8,field.adc9,field.adc10,field.adc11,field.adc12,field.adc13,field.adc14,field.adc15,field.nano.force.x,field.nano.force.y,field.nano.force.z,field.nano.torque.x,field.nano.torque.y,field.nano.torque.z
1519256114341249265,40524,1519256114341144231,weiss_callib,487,487,475,486,488,479,491,487,480,488,488,488,484,487,483,486,2.12466573715,-3.23188400269,141.243865967,0.0,0.0,0.0
1519256114421371897,40525,1519256114421165722,weiss_callib,487,487,475,487,488,479,492,488,480,489,488,488,485,487,484,486,2.08245396614,-3.28985500336,141.407531738,0.0,0.0,0.0
1519256114541850024,40526,1519256114541203388,weiss_callib,488,488,475,487,489,480,492,487,481,489,488,489,484,488,484,486,2.11059522629,-3.26086950302,141.407531738,0.0,0.0,0.0
1519256114661528032,40527,1519256114661197089,weiss_callib,487,487,475,486,488,480,491,487,480,489,489,489,485,488,483,486,2.06838321686,-3.30434775352,141.407531738,0.0,0.0,0.0
1519256114741656196,40528,1519256114741259288,weiss_callib,488,487,475,486,488,479,491,487,480,489,488,488,484,487,483,486,2.06838321686,-3.30434775352,141.407531738,0.0,0.0,0.0
1519256114861731081,40529,1519256114861263012,weiss_callib,487,487,475,487,488,479,492,487,480,489,489,488,484,488,483,486,2.08245396614,-3.37681150436,141.407531738,0.0,0.0,0.0
1519256114941661505,40530,1519256114941283330,weiss_callib,487,488,475,486,489,479,491,488,481,489,489,489,485,489,485,486,2.11059522629,-3.27536225319,141.407531738,0.0,0.0,0.0
1519256115061515911,40531,1519256115061206889,weiss_callib,487,487,475,487,488,479,491,487,480,489,489,489,484,488,484,486,2.12466573715,-3.24637675285,141.243865967,0.0,0.0,0.0
1519256115181559176,40532,1519256115181203000,weiss_callib,487,487,474,486,488,479,491,487,480,488,488,489,484,488,483,486,2.11059522629,-3.26086950302,141.407531738,0.0,0.0,0.0
1519256115261803481,40533,1519256115261193452,weiss_callib,487,486,476,486,488,479,491,487,480,489,488,488,485,487,483,486,2.08245396614,-3.27536225319,141.734863281,0.0,0.0,0.0
1519256115381554532,40534,1519256115381215360,weiss_callib,487,487,474,486,488,479,491,487,480,489,488,488,484,488,484,486,2.09652447701,-3.23188400269,141.243865967,0.0,0.0,0.0
1519256115501601913,40535,1519256115501244228,weiss_callib,487,486,475,486,488,479,492,487,480,489,488,489,484,487,483,486,2.08245396614,-3.3623187542,141.57119751,0.0,0.0,0.0
1519256115581601672,40536,1519256115581225370,weiss_callib,488,487,475,487,489,479,492,488,481,489,489,489,484,488,483,486,2.13873648643,-3.27536225319,141.243865967,0.0,0.0,0.0
1519256115701750640,40537,1519256115701260255,weiss_callib,487,487,475,486,489,479,491,487,480,489,488,488,484,487,483,486,2.12466573715,-3.21739125252,141.243865967,0.0,0.0,0.0
1519256115821584337,40538,1519256115821209728,weiss_callib,487,487,475,487,488,480,491,487,481,490,488,488,485,488,483,486,2.12466573715,-3.23188400269,141.243865967,0.0,0.0,0.0
1519256115901755578,40539,1519256115901261234,weiss_callib,487,487,475,486,489,479,491,488,481,489,489,489,484,488,484,486,2.12466573715,-3.21739125252,141.407531738,0.0,0.0,0.0
1519256116021754014,40540,1519256116021264100,weiss_callib,488,487,475,487,488,479,492,487,480,490,488,488,484,488,484,486,2.20908951759,-3.30434775352,141.57119751,0.0,0.0,0.0
1519256116101782872,40541,1519256116101289851,weiss_callib,488,487,476,487,489,480,491,487,481,489,488,489,484,487,483,486,2.46236109734,-3.01449275017,141.407531738,0.0,0.0,0.0
1519256116221743086,40542,1519256116221246822,weiss_callib,487,487,475,486,488,480,491,488,481,489,488,489,484,487,483,485,2.30758404732,-2.92753624916,137.806869507,0.0,0.0,0.0
1519256116341595145,40543,1519256116341221473,weiss_callib,487,487,475,486,489,479,492,488,480,488,488,489,484,488,484,486,2.36386656761,-2.78260874748,135.842880249,0.0,0.0,0.0
1519256116421586321,40544,1519256116421238680,weiss_callib,487,487,475,486,489,479,491,488,480,489,489,489,485,488,483,486,2.3216547966,-2.79710149765,135.679214478,0.0,0.0,0.0
1519256116541517517,40545,1519256116541210560,weiss_callib,487,487,474,487,488,479,491,487,480,489,488,489,484,487,484,485,1.73068809509,-3.21739125252,134.86088562,0.0,0.0,0.0
1519256116661580778,40546,1519256116661210023,weiss_callib,488,488,475,486,489,480,492,488,481,489,489,489,484,488,484,486,2.37793731689,-2.73913049698,135.188217163,0.0,0.0,0.0
1519256116741463589,40547,1519256116741199226,weiss_callib,487,486,475,487,488,479,491,488,480,488,488,489,484,488,483,485,2.3216547966,-2.75362324715,135.188217163,0.0,0.0,0.0
1519256116861557726,40548,1519256116861220850,weiss_callib,486,487,474,486,488,480,491,487,481,489,488,488,484,487,484,486,2.40607857704,-2.69565224648,135.842880249,0.0,0.0,0.0
1519256116981434850,40549,1519256116981217914,weiss_callib,487,488,474,486,489,479,491,487,481,489,488,489,484,487,484,486,2.40607857704,-2.73913049698,135.679214478,0.0,0.0,0.0
1519256117061762635,40550,1519256117061230478,weiss_callib,488,487,474,487,489,479,491,487,481,489,488,488,484,487,483,486,2.37793731689,-2.66666674614,134.86088562,0.0,0.0,0.0
1519256117181753403,40551,1519256117181261219,weiss_callib,487,488,475,486,488,479,491,487,481,489,488,489,484,487,484,487,2.29351353645,-2.86956524849,135.679214478,0.0,0.0,0.0
1519256117261549061,40552,1519256117261205305,weiss_callib,487,487,474,487,488,479,491,487,480,489,488,489,484,488,484,487,1.85732376575,-3.14492750168,134.86088562,0.0,0.0,0.0
1519256117381596488,40553,1519256117381218286,weiss_callib,487,487,475,486,489,479,491,488,480,488,488,489,484,487,483,487,1.37892222404,-3.49275350571,133.878890991,0.0,0.0,0.0
1519256117501676538,40554,1519256117501201743,weiss_callib,487,488,474,487,488,479,492,487,480,488,488,489,484,487,484,486,1.63219356537,-3.33333325386,134.369888306,0.0,0.0,0.0
1519256117581510599,40555,1519256117581228264,weiss_callib,487,487,475,487,488,480,491,487,480,489,488,489,484,488,483,487,1.63219356537,-3.30434775352,135.024551392,0.0,0.0,0.0
1519256117701690150,40556,1519256117701211607,weiss_callib,487,487,474,487,489,480,492,487,480,489,488,489,484,488,483,487,1.37892222404,-3.5507247448,134.86088562,0.0,0.0,0.0
1519256117821579976,40557,1519256117821214850,weiss_callib,487,487,474,486,489,479,491,487,480,489,488,489,484,488,484,486,1.82918250561,-3.21739125252,134.369888306,0.0,0.0,0.0
1519256117901690573,40558,1519256117901235624,weiss_callib,488,488,475,487,488,480,492,487,480,489,488,489,484,487,484,486,2.12466573715,-2.82608699799,135.188217163,0.0,0.0,0.0
1519256118021751624,40559,1519256118021262260,weiss_callib,487,487,475,487,488,480,491,487,480,489,488,489,484,487,484,486,1.71661746502,-3.21739125252,135.024551392,0.0,0.0,0.0
1519256118141568000,40560,1519256118141220685,weiss_callib,487,487,475,486,488,479,491,487,481,489,488,489,484,488,483,486,1.6744055748,-3.28985500336,135.351882935,0.0,0.0,0.0
1519256118221253874,40561,1519256118221152209,weiss_callib,487,487,475,487,489,480,492,488,481,489,488,489,484,487,484,487,1.57591104507,-3.31884050369,134.86088562,0.0,0.0,0.0
1519256118341669721,40562,1519256118341236347,weiss_callib,487,487,474,486,489,480,491,487,481,488,488,489,484,487,483,486,1.37892222404,-3.4057970047,134.042556763,0.0,0.0,0.0
1519256118421765573,40563,1519256118421294548,weiss_callib,487,488,474,487,489,480,492,488,480,489,488,489,484,488,484,486,1.51962852478,-3.43478250504,134.697219849,0.0,0.0,0.0
1519256118541544494,40564,1519256118541195775,weiss_callib,488,487,474,486,489,479,491,488,480,488,488,489,484,488,483,486,1.74475872517,-3.27536225319,135.024551392,0.0,0.0,0.0
1519256118661571977,40565,1519256118661214749,weiss_callib,488,487,475,487,488,480,492,487,481,488,488,488,484,488,484,486,1.78697061539,-3.17391300201,135.024551392,0.0,0.0,0.0
1519256118741600469,40566,1519256118741250788,weiss_callib,486,487,475,486,488,479,491,487,480,489,488,489,484,487,483,486,2.13873648643,-2.92753624916,135.679214478,0.0,0.0,0.0
1519256118861676292,40567,1519256118861254418,weiss_callib,487,486,474,487,488,479,491,487,480,489,488,488,484,488,483,486,2.06838321686,-2.86956524849,135.024551392,0.0,0.0,0.0
1519256118981588331,40568,1519256118981211583,weiss_callib,487,487,474,487,489,480,491,487,480,489,488,488,485,488,484,487,2.11059522629,-2.9565217495,135.188217163,0.0,0.0,0.0
1519256119061519581,40569,1519256119061248402,weiss_callib,487,487,475,486,488,480,492,487,480,488,488,489,484,488,484,486,2.04024195671,-3.05797100067,135.024551392,0.0,0.0,0.0
1519256119181580179,40570,1519256119181208472,weiss_callib,487,487,474,486,488,479,491,488,480,489,488,489,484,488,483,486,1.91360628605,-3.14492750168,135.679214478,0.0,0.0,0.0
1519256119301596817,40571,1519256119301211539,weiss_callib,487,487,474,486,488,480,491,487,480,490,488,488,484,487,484,486,2.13873648643,-2.88405799866,135.351882935,0.0,0.0,0.0
1519256119381549470,40572,1519256119381210974,weiss_callib,487,487,475,487,488,480,491,488,481,489,488,489,484,488,484,486,2.1528069973,-2.89855074883,135.351882935,0.0,0.0,0.0
1519256119501614339,40573,1519256119501222982,weiss_callib,487,487,474,487,488,479,491,487,480,489,488,488,484,488,484,486,2.01210069656,-3.02898550034,135.351882935,0.0,0.0,0.0
1519256119581575038,40574,1519256119581229032,weiss_callib,487,487,475,486,488,479,492,487,481,489,488,488,484,488,484,486,2.09652447701,-3.01449275017,135.679214478,0.0,0.0,0.0
1519256119701744295,40575,1519256119701262083,weiss_callib,486,486,475,486,488,480,491,487,480,489,488,488,484,488,483,486,2.16687774658,-2.97101449966,135.842880249,0.0,0.0,0.0
1519256119821340768,40576,1519256119821174461,weiss_callib,487,487,474,486,488,479,491,487,480,489,488,488,484,487,483,486,2.22316026688,-2.84057974815,135.679214478,0.0,0.0,0.0
1519256119901745188,40577,1519256119901262922,weiss_callib,487,487,475,486,489,480,492,487,480,489,488,489,484,488,484,486,2.1528069973,-2.85507249832,135.188217163,0.0,0.0,0.0
1519256120021540111,40578,1519256120021179374,weiss_callib,487,487,475,487,489,480,492,488,480,489,489,489,485,488,484,486,2.05431270599,-2.94202899933,135.024551392,0.0,0.0,0.0
1519256120141588320,40579,1519256120141212374,weiss_callib,487,486,475,487,489,479,491,487,481,489,489,489,484,487,484,486,1.561840415,-3.17391300201,134.697219849,0.0,0.0,0.0
1519256120221768709,40580,1519256120221292441,weiss_callib,487,487,475,486,488,479,492,487,480,489,489,489,484,488,483,486,1.80104124546,-3.20289850235,135.188217163,0.0,0.0,0.0
1519256120341679603,40581,1519256120341214381,weiss_callib,487,487,474,486,488,479,491,487,480,489,488,489,484,488,485,486,1.54776978493,-3.47826075554,135.351882935,0.0,0.0,0.0
1519256120461547935,40582,1519256120461201466,weiss_callib,487,488,474,486,489,480,491,487,481,489,488,488,484,487,483,485,1.47741663456,-3.50724649429,135.842880249,0.0,0.0,0.0
1519256120541486019,40583,1519256120541176651,weiss_callib,487,486,475,486,489,480,491,488,481,489,489,490,484,488,484,486,1.64626419544,-3.28985500336,135.842880249,0.0,0.0,0.0
1519256120661563516,40584,1519256120661182183,weiss_callib,487,486,475,486,488,480,491,487,480,489,488,488,484,488,483,486,1.57591104507,-3.28985500336,135.188217163,0.0,0.0,0.0
1519256120741568395,40585,1519256120741249024,weiss_callib,488,487,475,487,489,480,491,487,480,489,489,489,484,487,484,486,1.66033482552,-3.24637675285,135.351882935,0.0,0.0,0.0
1519256120861560359,40586,1519256120861223747,weiss_callib,487,488,474,486,489,479,491,488,480,488,488,489,484,488,484,486,1.54776978493,-3.33333325386,135.188217163,0.0,0.0,0.0
1519256120981657176,40587,1519256120981257948,weiss_callib,487,486,474,487,489,479,491,487,480,489,488,489,484,487,484,486,1.74475872517,-3.27536225319,135.679214478,0.0,0.0,0.0
1519256121061628044,40588,1519256121061249080,weiss_callib,487,487,475,487,488,480,492,487,480,489,488,489,484,487,483,486,1.43520474434,-3.4492752552,135.515548706,0.0,0.0,0.0
1519256121181511553,40589,1519256121181214737,weiss_callib,487,488,475,487,489,480,492,487,481,489,489,489,485,488,484,486,1.6744055748,-3.30434775352,135.679214478,0.0,0.0,0.0
1519256121301615044,40590,1519256121301224854,weiss_callib,487,487,475,487,489,480,492,487,480,490,488,489,484,488,484,486,1.53369915485,-3.4057970047,135.351882935,0.0,0.0,0.0
1519256121381684095,40591,1519256121381281682,weiss_callib,487,487,475,487,488,479,492,487,481,488,489,488,484,488,484,486,1.47741663456,-3.42028975487,135.515548706,0.0,0.0,0.0
1519256121501569455,40592,1519256121501210713,weiss_callib,487,487,474,486,488,479,491,487,480,489,488,488,484,487,483,486,1.70254683495,-3.28985500336,135.679214478,0.0,0.0,0.0
1519256121621474981,40593,1519256121621210542,weiss_callib,487,487,474,486,488,480,491,487,481,489,488,489,484,487,484,486,1.15379202366,-3.5942029953,135.188217163,0.0,0.0,0.0
1519256121701475615,40594,1519256121701186118,weiss_callib,488,487,474,487,488,480,491,487,480,489,488,489,484,488,484,486,1.40706348419,-3.46376800537,135.188217163,0.0,0.0,0.0
1519256121821629164,40595,1519256121821271575,weiss_callib,487,487,475,486,488,479,492,487,480,489,489,488,484,488,483,486,1.561840415,-3.3623187542,135.351882935,0.0,0.0,0.0
1519256121901629478,40596,1519256121901218639,weiss_callib,487,487,474,486,488,479,491,487,480,489,488,488,484,488,484,486,1.74475872517,-3.24637675285,136.006546021,0.0,0.0,0.0
1519256122021524069,40597,1519256122021177376,weiss_callib,487,487,475,486,488,480,491,487,481,489,488,489,484,487,483,486,1.98395943642,-3.08695650101,136.006546021,0.0,0.0,0.0
1519256122141596550,40598,1519256122141206341,weiss_callib,488,487,475,487,489,479,491,487,481,489,488,489,484,488,484,486,2.01210069656,-3.02898550034,136.006546021,0.0,0.0,0.0
1519256122221693550,40599,1519256122221289298,weiss_callib,487,487,474,487,488,479,492,487,480,489,488,488,484,487,483,486,2.13873648643,-2.98550724983,136.006546021,0.0,0.0,0.0
1519256122341749268,40600,1519256122341231505,weiss_callib,487,487,474,487,488,479,491,487,480,490,489,488,484,488,484,486,2.16687774658,-3.0,136.497543335,0.0,0.0,0.0
1519256122461753258,40601,1519256122461261369,weiss_callib,487,487,475,486,488,479,491,487,481,488,488,488,484,487,484,486,2.06838321686,-3.10144925117,136.170211792,0.0,0.0,0.0
1519256122541693827,40602,1519256122541253658,weiss_callib,487,487,475,486,488,479,491,487,480,488,488,488,484,487,483,486,2.23723101616,-2.92753624916,136.333877563,0.0,0.0,0.0
1519256122661759378,40603,1519256122661265029,weiss_callib,487,488,475,487,488,480,491,487,480,489,489,488,484,488,484,486,2.20908951759,-2.97101449966,136.170211792,0.0,0.0,0.0
1519256122781491471,40604,1519256122781173923,weiss_callib,487,487,474,487,488,479,491,487,480,488,488,488,484,488,483,486,2.26537227631,-2.91304349899,136.170211792,0.0,0.0,0.0
1519256122861668361,40605,1519256122861259378,weiss_callib,486,487,475,486,488,479,491,488,480,489,488,488,484,488,483,486,2.29351353645,-2.85507249832,136.170211792,0.0,0.0,0.0
1519256122981770991,40606,1519256122981296854,weiss_callib,487,487,474,486,489,479,491,488,480,488,488,489,484,488,484,486,2.25130152702,-2.89855074883,136.333877563,0.0,0.0,0.0
1519256123061579156,40607,1519256123061261599,weiss_callib,487,487,475,487,489,479,492,488,481,489,489,489,485,488,483,486,2.19501900673,-2.92753624916,136.170211792,0.0,0.0,0.0
1519256123181551455,40608,1519256123181208715,weiss_callib,488,487,474,487,489,479,491,488,480,489,488,488,484,488,484,486,2.25130152702,-2.94202899933,136.333877563,0.0,0.0,0.0
1519256123301737034,40609,1519256123301262841,weiss_callib,487,487,475,487,489,479,491,487,480,489,488,488,484,487,484,486,2.23723101616,-2.9565217495,136.333877563,0.0,0.0,0.0
1519256123381618728,40610,1519256123381251998,weiss_callib,487,487,475,486,489,479,491,488,481,489,488,490,484,488,483,486,2.30758404732,-2.82608699799,136.006546021,0.0,0.0,0.0
1519256123501749635,40611,1519256123501254504,weiss_callib,488,488,474,486,488,479,491,487,481,488,489,489,484,488,484,486,2.20908951759,-2.92753624916,136.333877563,0.0,0.0,0.0
1519256123621581938,40612,1519256123621227146,weiss_callib,487,487,475,486,488,480,491,487,481,489,488,489,484,488,483,486,2.12466573715,-2.98550724983,136.006546021,0.0,0.0,0.0
1519256123701725646,40613,1519256123701240713,weiss_callib,487,487,474,486,489,479,491,488,480,489,488,489,484,488,484,486,2.09652447701,-3.05797100067,135.842880249,0.0,0.0,0.0
1519256123821521269,40614,1519256123821212922,weiss_callib,488,487,474,486,488,479,491,488,480,488,488,489,484,488,483,486,1.82918250561,-3.28985500336,135.679214478,0.0,0.0,0.0
1519256123941680542,40615,1519256123941224556,weiss_callib,487,487,474,486,488,479,491,487,480,489,488,488,484,487,484,486,1.74475872517,-3.4057970047,136.006546021,0.0,0.0,0.0
1519256124021601506,40616,1519256124021226798,weiss_callib,487,487,475,486,488,480,491,487,480,489,488,488,484,488,484,486,1.74475872517,-3.28985500336,135.515548706,0.0,0.0,0.0
1519256124141603641,40617,1519256124141215341,weiss_callib,487,487,475,486,488,480,491,487,480,489,488,489,484,487,484,486,1.60405230522,-3.37681150436,135.679214478,0.0,0.0,0.0
1519256124221592728,40618,1519256124221223637,weiss_callib,487,487,475,486,488,480,491,488,481,488,489,489,484,488,484,486,1.64626419544,-3.3623187542,135.679214478,0.0,0.0,0.0
1519256124341425790,40619,1519256124341182759,weiss_callib,487,487,475,486,489,479,491,487,480,489,488,488,484,488,483,486,1.74475872517,-3.27536225319,135.515548706,0.0,0.0,0.0
1519256124461534057,40620,1519256124461300244,weiss_callib,488,487,475,487,488,479,491,487,480,488,488,488,484,487,484,486,1.74475872517,-3.33333325386,135.842880249,0.0,0.0,0.0
1519256124541705474,40621,1519256124541200039,weiss_callib,487,487,474,487,489,479,491,488,480,489,488,489,484,488,484,486,1.82918250561,-3.21739125252,135.515548706,0.0,0.0,0.0
1519256124661627741,40622,1519256124661258993,weiss_callib,488,487,475,487,489,479,491,488,480,489,489,489,484,487,483,486,1.75882935524,-3.23188400269,135.188217163,0.0,0.0,0.0
1519256124781552601,40623,1519256124781223638,weiss_callib,487,487,475,487,488,480,491,487,481,489,488,488,485,488,484,486,1.87139439583,-3.13043475151,135.842880249,0.0,0.0,0.0
1519256124861503495,40624,1519256124861242007,weiss_callib,487,487,475,487,488,479,492,487,480,489,488,488,485,488,483,486,1.92767691612,-3.23188400269,136.006546021,0.0,0.0,0.0
1519256124981532588,40625,1519256124981214732,weiss_callib,487,487,475,486,488,480,491,487,480,488,488,489,484,487,484,486,1.82918250561,-3.24637675285,135.679214478,0.0,0.0,0.0
1519256125061693454,40626,1519256125061285080,weiss_callib,487,487,474,487,488,480,491,487,480,489,489,489,484,487,484,486,1.99803006649,-3.05797100067,136.006546021,0.0,0.0,0.0
1519256125181620220,40627,1519256125181243381,weiss_callib,487,486,475,487,489,480,491,487,480,489,488,488,484,488,484,486,1.89953565598,-3.15942025185,135.679214478,0.0,0.0,0.0
1519256125301517197,40628,1519256125301228612,weiss_callib,487,488,475,487,489,480,492,487,481,489,488,489,484,488,484,486,1.9417475462,-3.15942025185,136.006546021,0.0,0.0,0.0
1519256125381564834,40629,1519256125381234091,weiss_callib,487,487,475,487,488,480,491,487,481,489,488,488,484,487,483,485,2.04024195671,-3.10144925117,136.170211792,0.0,0.0,0.0
1519256125501712559,40630,1519256125501231941,weiss_callib,487,487,474,487,488,479,491,488,480,489,488,489,484,487,483,486,1.96988880634,-3.08695650101,136.170211792,0.0,0.0,0.0
1519256125621579888,40631,1519256125621203987,weiss_callib,487,487,474,487,488,479,491,487,480,489,488,489,485,488,484,486,1.96988880634,-3.15942025185,135.842880249,0.0,0.0,0.0
1519256125701641541,40632,1519256125701252189,weiss_callib,487,487,475,487,488,479,492,487,480,488,489,490,484,487,484,486,2.02617144585,-3.15942025185,136.006546021,0.0,0.0,0.0
1519256125821448398,40633,1519256125821191764,weiss_callib,487,487,474,486,488,480,491,487,480,489,489,489,485,488,484,486,1.96988880634,-3.11594200134,135.842880249,0.0,0.0,0.0
1519256125941579849,40634,1519256125941205968,weiss_callib,487,487,474,486,489,480,491,487,480,488,489,489,484,488,485,486,1.92767691612,-3.13043475151,136.170211792,0.0,0.0,0.0
1519256126021579225,40635,1519256126021209813,weiss_callib,488,488,475,487,489,480,492,488,481,489,489,489,485,488,483,486,1.9417475462,-3.10144925117,135.842880249,0.0,0.0,0.0
1519256126141539563,40636,1519256126141211241,weiss_callib,487,487,474,486,488,480,491,487,481,489,488,489,484,487,484,486,1.89953565598,-3.23188400269,135.842880249,0.0,0.0,0.0
1519256126221734444,40637,1519256126221291593,weiss_callib,487,487,474,486,488,479,491,487,480,489,488,488,484,487,483,486,2.05431270599,-3.0434782505,136.006546021,0.0,0.0,0.0
1519256126341596626,40638,1519256126341228041,weiss_callib,488,487,475,486,489,479,492,487,480,490,489,488,484,488,483,486,2.04024195671,-3.08695650101,136.170211792,0.0,0.0,0.0
1519256126461659617,40639,1519256126461259238,weiss_callib,487,487,474,486,489,480,492,488,481,490,489,488,484,488,483,486,1.9417475462,-3.14492750168,135.842880249,0.0,0.0,0.0
1519256126541600256,40640,1519256126541237324,weiss_callib,487,487,475,487,488,480,491,487,480,488,488,488,484,488,484,486,1.87139439583,-3.26086950302,135.351882935,0.0,0.0,0.0
1519256126661547619,40641,1519256126661205847,weiss_callib,487,487,475,486,488,479,491,487,480,489,488,488,484,487,483,486,1.81511187553,-3.24637675285,136.006546021,0.0,0.0,0.0
1519256126781463114,40642,1519256126781180894,weiss_callib,487,487,474,487,488,480,491,487,480,488,488,488,484,488,483,486,1.84325313568,-3.24637675285,135.842880249,0.0,0.0,0.0
1519256126861535037,40643,1519256126861222081,weiss_callib,487,488,475,487,489,480,492,488,480,489,489,489,484,488,485,487,1.80104124546,-3.28985500336,135.679214478,0.0,0.0,0.0
1519256126982329117,40644,1519256126981277819,weiss_callib,488,487,474,486,488,479,492,488,481,490,489,489,484,488,484,486,1.82918250561,-3.30434775352,135.679214478,0.0,0.0,0.0
1519256127101697331,40645,1519256127101262804,weiss_callib,487,487,475,486,488,479,491,487,480,489,489,488,483,488,483,486,1.84325313568,-3.26086950302,135.679214478,0.0,0.0,0.0
1519256127181515981,40646,1519256127181221294,weiss_callib,487,487,475,487,489,480,491,488,480,489,489,489,484,487,484,486,1.84325313568,-3.21739125252,135.842880249,0.0,0.0,0.0
1519256127301741368,40647,1519256127301263236,weiss_callib,487,487,474,486,488,480,491,487,480,489,488,488,484,487,484,486,1.84325313568,-3.18840575218,135.679214478,0.0,0.0,0.0
1519256127381566676,40648,1519256127381228683,weiss_callib,486,487,474,486,488,479,491,487,480,489,488,489,484,487,484,486,1.87139439583,-3.24637675285,135.842880249,0.0,0.0,0.0
1519256127501752436,40649,1519256127501261148,weiss_callib,487,487,474,487,489,480,491,487,481,488,489,488,484,488,484,486,1.84325313568,-3.24637675285,135.679214478,0.0,0.0,0.0
1519256127621507773,40650,1519256127621165795,weiss_callib,487,487,474,487,489,480,491,488,480,489,488,489,484,487,483,485,1.78697061539,-3.31884050369,135.842880249,0.0,0.0,0.0
1519256127701742800,40651,1519256127701257742,weiss_callib,487,487,475,486,488,479,491,487,480,489,489,489,484,488,483,486,1.66033482552,-3.39130425453,135.351882935,0.0,0.0,0.0
1519256127821494508,40652,1519256127821199673,weiss_callib,487,487,474,487,488,479,491,487,480,488,488,489,484,487,484,486,1.77289998531,-3.28985500336,135.351882935,0.0,0.0,0.0
1519256127941689447,40653,1519256127941241429,weiss_callib,487,487,475,486,488,479,491,487,480,489,488,489,484,488,484,486,1.60405230522,-3.46376800537,135.188217163,0.0,0.0,0.0
1519256128021695213,40654,1519256128021286600,weiss_callib,487,487,474,486,489,480,491,488,480,489,488,489,484,488,483,485,1.85732376575,-3.26086950302,135.842880249,0.0,0.0,0.0
1519256128141552938,40655,1519256128141197795,weiss_callib,487,487,474,486,488,480,491,488,480,489,488,489,484,488,484,486,1.6181229353,-3.4492752552,135.351882935,0.0,0.0,0.0
1519256128261534721,40656,1519256128261207148,weiss_callib,487,487,474,486,489,479,491,488,481,489,489,489,484,488,484,485,1.6744055748,-3.42028975487,135.351882935,0.0,0.0,0.0
1519256128341587013,40657,1519256128341204386,weiss_callib,487,487,475,488,489,480,492,488,481,490,489,489,485,488,484,486,1.70254683495,-3.28985500336,135.351882935,0.0,0.0,0.0
1519256128461750535,40658,1519256128461266434,weiss_callib,487,486,475,487,488,479,491,488,480,489,489,488,484,487,484,486,1.73068809509,-3.34782600403,136.006546021,0.0,0.0,0.0
1519256128541607066,40659,1519256128541235013,weiss_callib,487,487,474,487,488,479,491,487,480,488,488,489,485,488,484,486,1.68847620487,-3.27536225319,134.86088562,0.0,0.0,0.0
1519256128661590578,40660,1519256128661207069,weiss_callib,487,487,475,486,488,480,491,487,481,489,488,488,484,487,484,487,1.68847620487,-3.21739125252,135.188217163,0.0,0.0,0.0
1519256128781495145,40661,1519256128781202542,weiss_callib,487,488,474,486,488,479,491,487,480,488,488,488,484,488,484,486,1.74475872517,-3.26086950302,135.515548706,0.0,0.0,0.0
1519256128861615306,40662,1519256128861240177,weiss_callib,487,487,474,486,489,480,491,487,480,489,489,490,484,488,484,486,1.66033482552,-3.47826075554,135.679214478,0.0,0.0,0.0
1519256128981441205,40663,1519256128981190193,weiss_callib,487,487,475,487,488,479,491,487,480,489,489,489,485,487,483,486,1.50555789471,-3.53623199463,135.188217163,0.0,0.0,0.0
1519256129101586991,40664,1519256129101208323,weiss_callib,487,487,475,487,488,479,491,487,480,489,489,489,484,488,484,487,1.68847620487,-3.39130425453,135.188217163,0.0,0.0,0.0
1519256129181532464,40665,1519256129181228495,weiss_callib,487,487,475,486,488,480,491,487,481,488,488,489,484,487,484,486,1.6744055748,-3.33333325386,135.351882935,0.0,0.0,0.0
1519256129301558888,40666,1519256129301196347,weiss_callib,487,487,475,487,488,480,491,488,480,489,488,489,485,487,483,485,1.75882935524,-3.24637675285,135.351882935,0.0,0.0,0.0
1519256129421877821,40667,1519256129421203948,weiss_callib,487,487,475,486,488,479,491,487,480,489,489,488,484,488,483,486,1.60405230522,-3.43478250504,135.515548706,0.0,0.0,0.0
1519256129501508859,40668,1519256129501193878,weiss_callib,487,488,475,487,489,480,492,488,481,489,488,489,485,488,483,486,1.66033482552,-3.4492752552,135.679214478,0.0,0.0,0.0
1519256129621725588,40669,1519256129621261047,weiss_callib,487,487,474,487,488,480,491,487,480,489,488,488,484,488,483,487,1.64626419544,-3.33333325386,136.006546021,0.0,0.0,0.0
1519256129741689129,40670,1519256129741226808,weiss_callib,487,487,474,487,488,480,491,487,480,489,489,489,484,488,483,486,1.58998167515,-3.37681150436,135.679214478,0.0,0.0,0.0
1519256129821671296,40671,1519256129821270805,weiss_callib,487,487,474,486,488,479,491,488,480,489,488,488,484,488,484,486,1.60405230522,-3.50724649429,135.515548706,0.0,0.0,0.0
1519256129941607223,40672,1519256129941249001,weiss_callib,487,488,475,487,488,479,491,488,480,489,488,488,485,488,483,486,1.64626419544,-3.42028975487,135.188217163,0.0,0.0,0.0
1519256130021767778,40673,1519256130021293941,weiss_callib,487,487,474,486,488,480,491,488,480,489,488,488,484,487,484,486,1.6181229353,-3.33333325386,135.351882935,0.0,0.0,0.0
1519256130141469556,40674,1519256130141171182,weiss_callib,488,487,475,487,489,480,492,488,480,489,489,489,484,487,484,486,1.60405230522,-3.43478250504,135.515548706,0.0,0.0,0.0
1519256130261553559,40675,1519256130261188899,weiss_callib,487,488,475,487,489,479,492,488,481,489,489,489,485,488,483,486,1.64626419544,-3.42028975487,135.679214478,0.0,0.0,0.0
1519256130341740356,40676,1519256130341293887,weiss_callib,487,487,474,486,488,480,492,487,480,488,488,489,484,488,484,486,1.57591104507,-3.39130425453,135.188217163,0.0,0.0,0.0
1519256130461732734,40677,1519256130461229128,weiss_callib,488,487,474,487,488,480,491,487,480,489,488,489,484,488,484,485,1.64626419544,-3.37681150436,135.515548706,0.0,0.0,0.0
1519256130581687539,40678,1519256130581229940,weiss_callib,487,487,474,487,489,480,492,487,480,489,489,489,484,488,484,485,1.6744055748,-3.31884050369,135.679214478,0.0,0.0,0.0
1519256130661567459,40679,1519256130661210832,weiss_callib,487,487,475,487,489,480,492,488,481,489,489,489,485,488,483,486,1.60405230522,-3.43478250504,135.188217163,0.0,0.0,0.0
1519256130781740318,40680,1519256130781263524,weiss_callib,487,486,475,487,488,479,492,487,480,489,488,488,485,488,483,486,1.6744055748,-3.43478250504,135.515548706,0.0,0.0,0.0
1519256130861648309,40681,1519256130861263628,weiss_callib,487,487,474,487,488,480,491,487,480,489,489,488,485,487,484,486,1.71661746502,-3.39130425453,135.679214478,0.0,0.0,0.0
1519256130981608074,40682,1519256130981206859,weiss_callib,488,487,475,487,488,479,491,488,480,489,489,489,484,488,484,486,1.60405230522,-3.47826075554,135.515548706,0.0,0.0,0.0
1519256131101454677,40683,1519256131101197294,weiss_callib,487,487,475,487,488,479,491,487,481,488,488,489,484,488,483,486,1.63219356537,-3.42028975487,135.188217163,0.0,0.0,0.0
1519256131181622048,40684,1519256131181243987,weiss_callib,487,487,474,487,489,479,491,487,480,489,489,488,484,488,484,486,1.70254683495,-3.39130425453,135.515548706,0.0,0.0,0.0
1519256131301549536,40685,1519256131301211622,weiss_callib,486,487,475,487,488,479,491,487,480,489,488,489,484,488,484,486,1.60405230522,-3.42028975487,135.351882935,0.0,0.0,0.0
1519256131421519500,40686,1519256131421211929,weiss_callib,486,487,475,486,489,480,492,487,480,489,488,488,484,487,483,487,1.66033482552,-3.42028975487,135.679214478,0.0,0.0,0.0
1519256131501570125,40687,1519256131501218965,weiss_callib,487,488,474,486,489,479,491,488,480,489,489,489,484,487,484,486,1.73068809509,-3.34782600403,135.515548706,0.0,0.0,0.0
1519256131621529922,40688,1519256131621215983,weiss_callib,487,487,475,486,489,479,491,487,480,488,488,488,484,487,484,486,1.66033482552,-3.43478250504,135.351882935,0.0,0.0,0.0
1519256131741504989,40689,1519256131741183624,weiss_callib,487,487,474,486,489,479,492,487,480,489,488,489,484,488,484,486,1.70254683495,-3.33333325386,135.351882935,0.0,0.0,0.0
1519256131821468796,40690,1519256131821213447,weiss_callib,488,488,475,487,488,479,491,488,480,489,488,488,484,487,483,487,1.75882935524,-3.28985500336,135.351882935,0.0,0.0,0.0
1519256131941825139,40691,1519256131941191974,weiss_callib,487,487,475,486,488,480,491,487,480,489,488,488,485,487,484,486,1.63219356537,-3.42028975487,135.351882935,0.0,0.0,0.0
1519256132021749601,40692,1519256132021258755,weiss_callib,487,486,474,487,488,480,491,487,480,488,488,488,485,488,484,486,1.75882935524,-3.39130425453,135.679214478,0.0,0.0,0.0
1519256132141592387,40693,1519256132141188254,weiss_callib,487,487,475,487,488,479,491,487,480,489,488,489,484,487,484,486,1.71661746502,-3.3623187542,135.679214478,0.0,0.0,0.0
1519256132261513393,40694,1519256132261204950,weiss_callib,488,488,475,487,488,479,492,487,480,489,488,489,484,487,483,486,1.6744055748,-3.3623187542,135.351882935,0.0,0.0,0.0
1519256132341656102,40695,1519256132341219901,weiss_callib,488,487,475,486,488,479,492,487,480,489,488,489,484,487,483,486,1.77289998531,-3.28985500336,135.351882935,0.0,0.0,0.0
1519256132461683214,40696,1519256132461207698,weiss_callib,488,487,474,486,488,479,491,487,480,488,488,488,484,488,483,486,1.64626419544,-3.4057970047,135.188217163,0.0,0.0,0.0
1519256132581587784,40697,1519256132581207503,weiss_callib,487,487,474,486,488,479,491,488,480,488,488,489,484,487,484,486,1.58998167515,-3.3623187542,135.351882935,0.0,0.0,0.0
1519256132661586859,40698,1519256132661202848,weiss_callib,487,487,474,487,488,479,492,487,480,489,488,488,485,487,483,487,1.6181229353,-3.46376800537,135.188217163,0.0,0.0,0.0
1519256132781556940,40699,1519256132781211092,weiss_callib,487,487,475,486,488,479,492,488,480,488,489,489,484,488,483,486,1.64626419544,-3.43478250504,135.351882935,0.0,0.0,0.0
1519256132901534843,40700,1519256132901175631,weiss_callib,487,487,475,486,488,479,491,488,480,489,488,488,484,487,484,485,1.64626419544,-3.46376800537,135.188217163,0.0,0.0,0.0
1519256132981604335,40701,1519256132981215534,weiss_callib,487,487,475,487,488,480,491,487,480,489,488,488,484,487,484,486,1.64626419544,-3.42028975487,135.351882935,0.0,0.0,0.0
1519256133101538974,40702,1519256133101196650,weiss_callib,487,488,475,486,488,480,491,487,480,489,488,488,485,488,483,486,1.81511187553,-3.28985500336,135.351882935,0.0,0.0,0.0
1519256133181779019,40703,1519256133181291781,weiss_callib,487,487,474,487,488,479,491,487,480,489,488,489,484,487,484,486,1.73068809509,-3.42028975487,135.188217163,0.0,0.0,0.0
1519256133301684767,40704,1519256133301224902,weiss_callib,487,487,474,486,488,480,491,487,480,489,488,488,484,488,484,486,1.68847620487,-3.3623187542,135.188217163,0.0,0.0,0.0
1519256133421592594,40705,1519256133421205116,weiss_callib,487,487,474,486,488,479,491,487,480,489,489,489,484,488,483,486,1.60405230522,-3.4492752552,134.86088562,0.0,0.0,0.0
1519256133501587880,40706,1519256133501240169,weiss_callib,487,488,475,486,488,479,491,487,480,489,488,489,485,487,483,486,1.74475872517,-3.28985500336,135.188217163,0.0,0.0,0.0
1519256133621428928,40707,1519256133621172180,weiss_callib,487,487,474,486,489,479,492,487,481,488,489,488,484,488,483,487,1.6744055748,-3.4057970047,135.188217163,0.0,0.0,0.0
1519256133741490324,40708,1519256133741180496,weiss_callib,487,487,474,486,488,480,492,488,480,489,488,489,485,488,484,486,1.74475872517,-3.37681150436,135.188217163,0.0,0.0,0.0
1519256133821575072,40709,1519256133821224363,weiss_callib,487,487,474,487,488,479,491,488,480,488,488,489,484,487,484,486,1.78697061539,-3.37681150436,135.679214478,0.0,0.0,0.0
1519256133941568436,40710,1519256133941197050,weiss_callib,487,487,475,487,489,480,492,488,481,489,489,489,484,487,483,486,1.70254683495,-3.37681150436,135.842880249,0.0,0.0,0.0
1519256134061550324,40711,1519256134061203204,weiss_callib,487,487,474,487,489,480,491,488,480,489,489,489,484,488,484,485,1.81511187553,-3.34782600403,135.679214478,0.0,0.0,0.0
1519256134141569826,40712,1519256134141221603,weiss_callib,487,487,474,486,488,479,491,487,480,489,488,489,484,487,483,485,1.78697061539,-3.3623187542,135.679214478,0.0,0.0,0.0
1519256134261433517,40713,1519256134261180073,weiss_callib,486,487,474,487,488,480,491,488,481,489,489,489,484,489,484,486,1.77289998531,-3.3623187542,135.679214478,0.0,0.0,0.0
1519256134381780361,40714,1519256134381442066,weiss_callib,487,486,474,486,488,480,491,487,481,489,489,489,484,488,484,487,1.78697061539,-3.28985500336,135.679214478,0.0,0.0,0.0
1519256134461506707,40715,1519256134461204174,weiss_callib,487,487,475,486,488,480,491,487,480,489,489,489,484,488,484,486,1.78697061539,-3.28985500336,135.515548706,0.0,0.0,0.0
1519256134582188799,40716,1519256134581204305,weiss_callib,487,487,475,486,488,480,491,487,480,488,488,489,484,488,483,486,1.74475872517,-3.31884050369,135.842880249,0.0,0.0,0.0
1519256134661776174,40717,1519256134661297155,weiss_callib,487,487,475,487,489,480,492,488,481,489,489,490,485,489,484,487,1.82918250561,-3.26086950302,135.679214478,0.0,0.0,0.0
1519256134781531564,40718,1519256134781182791,weiss_callib,487,487,474,486,489,479,491,487,480,489,489,489,484,488,483,486,1.78697061539,-3.33333325386,135.842880249,0.0,0.0,0.0
1519256134901524634,40719,1519256134901208837,weiss_callib,487,488,474,486,489,479,491,487,480,489,489,489,484,487,484,486,2.01210069656,-3.34782600403,142.062194824,0.0,0.0,0.0
1519256134981494191,40720,1519256134981202534,weiss_callib,487,487,475,487,488,480,491,487,481,489,488,488,485,487,483,487,2.54678487778,-3.47826075554,154.500823975,0.0,0.0,0.0
1519256135101383205,40721,1519256135101163368,weiss_callib,487,487,474,487,488,480,491,487,480,489,489,489,484,488,484,486,2.57492613792,-3.3623187542,149.590835571,0.0,0.0,0.0
1519256135181450831,40722,1519256135181194934,weiss_callib,487,487,473,487,488,479,492,487,480,489,488,489,484,488,483,486,2.54678487778,-3.30434775352,154.828155518,0.0,0.0,0.0
1519256135301466477,40723,1519256135301205937,weiss_callib,487,488,472,487,489,480,492,488,481,489,488,489,484,488,484,486,2.20908951759,-3.65217399597,162.847793579,0.0,0.0,0.0
1519256135421560430,40724,1519256135421188673,weiss_callib,487,487,471,486,488,480,492,488,480,489,489,489,484,488,483,487,2.06838321686,-3.37681150436,162.520462036,0.0,0.0,0.0
1519256135501280333,40725,1519256135501161473,weiss_callib,487,487,469,487,488,480,491,487,481,489,488,489,485,488,484,487,2.39200782776,-3.31884050369,160.883804321,0.0,0.0,0.0
1519256135621413524,40726,1519256135621167966,weiss_callib,487,487,469,486,489,480,492,487,480,490,488,488,485,487,484,486,2.39200782776,-3.47826075554,174.631744385,0.0,0.0,0.0
1519256135741334569,40727,1519256135741172229,weiss_callib,487,488,467,486,488,480,491,487,480,489,488,489,484,488,484,486,2.7015619278,-3.69565224648,171.685760498,0.0,0.0,0.0
1519256135821380724,40728,1519256135821181532,weiss_callib,487,488,467,487,488,480,491,488,480,489,488,489,484,487,484,486,3.06739830971,-3.52173924446,167.757766724,0.0,0.0,0.0
1519256135941459455,40729,1519256135941170143,weiss_callib,487,487,465,487,488,479,491,488,480,489,488,489,484,488,484,486,3.08146905899,-3.50724649429,183.960723877,0.0,0.0,0.0
1519256136061335531,40730,1519256136061178090,weiss_callib,488,488,465,487,489,480,492,487,480,489,488,489,484,488,484,486,3.08146905899,-3.78260874748,178.887069702,0.0,0.0,0.0
1519256136141429487,40731,1519256136141190787,weiss_callib,487,487,464,486,488,479,491,487,480,489,489,489,484,487,483,485,3.61615300179,-3.78260874748,197.217681885,0.0,0.0,0.0
1519256136261326964,40732,1519256136261153863,weiss_callib,487,487,461,487,488,480,492,488,481,490,488,488,484,488,484,486,3.54579997063,-3.85507249832,189.198028564,0.0,0.0,0.0
1519256136381310006,40733,1519256136381153655,weiss_callib,487,487,460,487,488,480,492,487,480,489,488,488,484,488,483,487,3.74278879166,-3.88405799866,191.489364624,0.0,0.0,0.0
1519256136461325231,40734,1519256136461164877,weiss_callib,488,488,460,488,489,480,492,488,481,489,489,489,484,488,484,486,3.88349509239,-3.98550724983,202.291320801,0.0,0.0,0.0
1519256136581322713,40735,1519256136581172187,weiss_callib,487,487,457,487,488,480,491,487,481,488,488,489,485,488,484,487,3.72871828079,-3.42028975487,196.399337769,0.0,0.0,0.0
1519256136661405471,40736,1519256136661177877,weiss_callib,487,487,455,486,488,480,491,487,480,488,488,489,484,487,483,487,3.75685954094,-3.39130425453,186.906707764,0.0,0.0,0.0
1519256136781335774,40737,1519256136781153752,weiss_callib,488,487,455,487,488,480,492,488,481,489,488,488,484,487,483,486,4.23526096344,-3.62318849564,209.819961548,0.0,0.0,0.0
1519256136901296050,40738,1519256136901153754,weiss_callib,488,487,452,487,489,479,492,488,480,489,488,488,484,489,483,486,3.98198962212,-3.86956524849,203.764328003,0.0,0.0,0.0
1519256136981868368,40739,1519256136981188681,weiss_callib,487,487,451,487,488,479,491,487,480,489,488,488,484,487,483,486,4.9669342041,-3.94202899933,212.602294922,0.0,0.0,0.0
1519256137101252063,40740,1519256137101160350,weiss_callib,487,488,449,487,489,479,491,487,481,489,488,489,484,488,483,486,4.13676643372,-4.31884050369,206.71031189,0.0,0.0,0.0
1519256137221435514,40741,1519256137221186660,weiss_callib,488,488,447,487,489,481,492,488,481,490,489,488,484,488,484,486,4.29154348373,-4.0,215.875610352,0.0,0.0,0.0
1519256137301374439,40742,1519256137301194364,weiss_callib,487,488,445,487,488,480,492,487,480,489,488,489,484,487,483,487,4.82622766495,-4.27536249161,218.166946411,0.0,0.0,0.0
1519256137421430268,40743,1519256137421170967,weiss_callib,487,488,443,487,488,480,491,488,480,489,488,488,484,487,484,486,5.22020530701,-4.63768100739,230.441894531,0.0,0.0,0.0
1519256137541338884,40744,1519256137541152394,weiss_callib,487,487,440,487,488,480,491,488,480,489,489,488,484,488,484,486,4.9669342041,-4.31884050369,224.386245728,0.0,0.0,0.0
1519256137621350902,40745,1519256137621172453,weiss_callib,487,488,437,487,488,480,492,487,480,489,488,489,484,487,484,486,4.85436916351,-4.46376800537,219.967269897,0.0,0.0,0.0
1519256137741262689,40746,1519256137741141824,weiss_callib,487,488,435,487,489,480,492,488,480,489,489,488,484,488,484,486,5.30462932587,-4.62318849564,243.044189453,0.0,0.0,0.0
1519256137821468754,40747,1519256137821216523,weiss_callib,487,487,432,487,489,480,493,488,481,490,489,490,484,488,484,486,5.54382991791,-4.24637699127,233.551559448,0.0,0.0,0.0
1519256137941307867,40748,1519256137941159519,weiss_callib,487,488,431,487,488,480,492,487,480,489,488,489,484,487,484,487,5.75488948822,-4.50724649429,228.641571045,0.0,0.0,0.0
1519256138061276983,40749,1519256138061147304,weiss_callib,487,488,428,487,488,480,492,487,480,489,488,488,484,487,484,486,6.19107913971,-4.92753601074,255.646484375,0.0,0.0,0.0
1519256138141413599,40750,1519256138141209567,weiss_callib,488,488,425,487,489,481,493,488,481,489,488,489,484,487,483,486,6.00816106796,-4.95652151108,244.189849854,0.0,0.0,0.0
1519256138261326885,40751,1519256138261148781,weiss_callib,487,488,422,488,489,479,491,488,481,489,489,489,484,488,484,486,6.13479661942,-5.39130449295,259.738128662,0.0,0.0,0.0
1519256138381451137,40752,1519256138381193949,weiss_callib,487,488,419,489,488,480,492,488,481,489,489,489,484,488,484,486,5.54382991791,-5.20289850235,258.265136719,0.0,0.0,0.0
1519256138461328458,40753,1519256138461178941,weiss_callib,487,487,417,488,488,480,493,488,480,490,489,489,485,488,483,487,5.41719436646,-5.36231899261,243.862518311,0.0,0.0,0.0
1519256138581325555,40754,1519256138581163007,weiss_callib,487,488,412,488,489,480,493,488,480,489,489,489,485,488,484,486,5.38905286789,-5.23188400269,243.862518311,0.0,0.0,0.0
1519256138701308673,40755,1519256138701154319,weiss_callib,487,488,408,487,488,480,492,488,480,489,489,488,484,488,483,486,5.6001124382,-5.36231899261,265.30279541,0.0,0.0,0.0
1519256138781402509,40756,1519256138781183351,weiss_callib,487,488,406,488,488,479,492,487,481,489,488,489,484,487,484,486,5.6704659462,-5.11594200134,249.754501343,0.0,0.0,0.0
1519256138901400846,40757,1519256138901197305,weiss_callib,487,488,401,488,488,480,492,488,481,489,488,489,484,488,484,486,6.26143217087,-4.53623199463,271.84942627,0.0,0.0,0.0
1519256139021405325,40758,1519256139021172398,weiss_callib,487,488,396,489,488,480,492,488,480,489,489,489,485,488,484,487,6.47249174118,-4.56521749496,273.649749756,0.0,0.0,0.0
1519256139101326297,40759,1519256139101177927,weiss_callib,487,488,394,488,488,479,492,488,481,488,489,489,484,487,483,486,6.85239887238,-4.85507249832,284.124389648,0.0,0.0,0.0
1519256139221359028,40760,1519256139221177237,weiss_callib,487,488,387,487,488,480,492,488,480,489,488,489,484,487,484,486,6.65541028976,-4.63768100739,279.378082275,0.0,0.0,0.0
1519256139301594053,40761,1519256139301343108,weiss_callib,487,489,383,489,489,481,493,488,481,489,489,490,485,488,484,486,6.64133930206,-5.13043498993,271.358428955,0.0,0.0,0.0
1519256139421559074,40762,1519256139421179056,weiss_callib,487,488,378,487,488,480,492,488,481,489,488,489,484,488,484,486,6.76797533035,-5.23188400269,280.851074219,0.0,0.0,0.0
1519256139541516463,40763,1519256139541176589,weiss_callib,487,488,372,488,488,480,492,488,480,489,488,488,484,488,483,486,6.20514965057,-4.95652151108,283.960723877,0.0,0.0,0.0
1519256139621387761,40764,1519256139621182394,weiss_callib,487,488,369,488,488,480,492,487,480,489,488,489,484,488,483,486,6.20514965057,-5.01449298859,277.741394043,0.0,0.0,0.0
1519256139741271840,40765,1519256139741145072,weiss_callib,487,489,363,488,489,480,493,488,480,489,489,489,484,488,484,486,6.51470375061,-4.92753601074,300.0,0.0,0.0,0.0
1519256139861305824,40766,1519256139861164332,weiss_callib,487,488,355,488,488,480,492,487,480,489,488,489,484,487,484,486,6.82425785065,-4.86956501007,293.453369141,0.0,0.0,0.0
1519256139941743689,40767,1519256139941281900,weiss_callib,487,489,352,488,489,480,493,488,480,488,488,489,484,487,484,485,7.06345844269,-5.30434799194,293.453369141,0.0,0.0,0.0
1519256140061473882,40768,1519256140061176593,weiss_callib,487,488,344,488,487,480,492,487,481,489,488,488,484,488,483,486,6.82425785065,-5.15942049026,299.672668457,0.0,0.0,0.0
1519256140141694046,40769,1519256140141238742,weiss_callib,487,488,343,488,488,480,492,487,480,489,488,488,484,488,483,486,6.65541028976,-5.17391300201,300.163665771,0.0,0.0,0.0
1519256140261581707,40770,1519256140261228962,weiss_callib,487,488,343,488,488,479,492,488,480,489,488,488,484,489,484,485,6.66948080063,-5.07246398926,300.163665771,0.0,0.0,0.0
1519256140381537154,40771,1519256140381172810,weiss_callib,487,489,343,488,489,479,492,487,481,489,489,489,484,488,483,486,6.86646986008,-4.94202899933,299.836334229,0.0,0.0,0.0
1519256140461624437,40772,1519256140461247423,weiss_callib,487,489,343,488,488,480,493,487,480,488,488,488,484,487,484,486,6.86646986008,-4.95652151108,300.163665771,0.0,0.0,0.0
1519256140581517881,40773,1519256140581194010,weiss_callib,487,488,344,488,488,480,492,487,480,489,488,488,484,488,484,485,7.06345844269,-4.86956501007,300.163665771,0.0,0.0,0.0
1519256140701497279,40774,1519256140701195844,weiss_callib,487,488,343,488,488,479,492,487,480,488,488,488,483,487,483,486,6.97903490067,-4.94202899933,301.309326172,0.0,0.0,0.0
1519256140781675859,40775,1519256140781287017,weiss_callib,487,488,343,488,488,480,492,487,481,488,488,488,484,488,484,486,6.85239887238,-4.91304349899,300.818328857,0.0,0.0,0.0
1519256140901645908,40776,1519256140901169590,weiss_callib,487,488,343,488,488,479,492,487,480,489,488,488,484,487,483,486,6.55691576004,-5.14492750168,300.818328857,0.0,0.0,0.0
1519256140981679011,40777,1519256140981282465,weiss_callib,487,488,343,488,489,480,493,487,480,488,489,489,484,488,483,486,6.61319828033,-5.14492750168,301.472991943,0.0,0.0,0.0
1519256141101580924,40778,1519256141101224448,weiss_callib,487,488,343,488,489,480,493,488,481,489,489,489,484,488,484,486,7.04938793182,-4.88405799866,301.800323486,0.0,0.0,0.0
1519256141221749658,40779,1519256141221231068,weiss_callib,487,488,343,488,488,480,492,487,481,488,488,489,484,488,483,486,7.13381195068,-4.78260850906,301.309326172,0.0,0.0,0.0
1519256141301625378,40780,1519256141301255912,weiss_callib,487,488,343,488,488,480,492,487,480,489,488,488,484,487,483,485,7.10567045212,-4.76811599731,300.981994629,0.0,0.0,0.0
1519256141421572602,40781,1519256141421202003,weiss_callib,487,488,344,488,488,480,493,487,480,489,488,488,484,488,483,486,7.02124643326,-4.86956501007,301.472991943,0.0,0.0,0.0
1519256141541545068,40782,1519256141541178027,weiss_callib,487,488,344,488,489,480,493,488,480,488,488,488,484,488,483,486,6.5709862709,-5.17391300201,301.472991943,0.0,0.0,0.0
1519256141621578592,40783,1519256141621224741,weiss_callib,487,488,344,488,488,480,492,487,480,488,488,489,484,488,483,485,6.52877426147,-5.1884059906,301.800323486,0.0,0.0,0.0
1519256141741348501,40784,1519256141741153570,weiss_callib,487,488,344,488,488,480,492,488,480,488,488,488,483,488,483,485,6.76797533035,-4.98550701141,301.472991943,0.0,0.0,0.0
1519256141861289337,40785,1519256141861154926,weiss_callib,487,489,343,487,488,480,492,487,480,488,488,489,484,488,483,486,6.72576332092,-5.0,301.636657715,0.0,0.0,0.0
1519256141941668450,40786,1519256141941226502,weiss_callib,487,488,344,488,488,480,492,488,481,489,489,489,484,487,483,485,7.14788246155,-4.88405799866,301.963989258,0.0,0.0,0.0
1519256142061742335,40787,1519256142061238655,weiss_callib,487,489,343,488,488,479,493,487,480,488,488,489,484,488,484,485,6.88054037094,-4.95652151108,301.636657715,0.0,0.0,0.0
1519256142181604865,40788,1519256142181243526,weiss_callib,487,487,343,488,488,480,493,488,480,488,488,488,484,487,483,486,6.72576332092,-4.97101449966,301.636657715,0.0,0.0,0.0
